<?xml version="1.0" encoding="utf-8"?>
<!DOCTYPE eagle SYSTEM "eagle.dtd">
<eagle version="6.5.0">
<drawing>
<settings>
<setting alwaysvectorfont="no"/>
<setting verticaltext="up"/>
</settings>
<grid distance="0.125" unitdist="mm" unit="mm" style="lines" multiple="1" display="yes" altdistance="0.1" altunitdist="mic" altunit="mm"/>
<layers>
<layer number="1" name="Top" color="4" fill="1" visible="yes" active="yes"/>
<layer number="2" name="Route2" color="1" fill="3" visible="no" active="no"/>
<layer number="3" name="Route3" color="4" fill="3" visible="no" active="no"/>
<layer number="4" name="Route4" color="1" fill="4" visible="no" active="no"/>
<layer number="5" name="Route5" color="4" fill="4" visible="no" active="no"/>
<layer number="6" name="Route6" color="1" fill="8" visible="no" active="no"/>
<layer number="7" name="Route7" color="4" fill="8" visible="no" active="no"/>
<layer number="8" name="Route8" color="1" fill="2" visible="no" active="no"/>
<layer number="9" name="Route9" color="4" fill="2" visible="no" active="no"/>
<layer number="10" name="Route10" color="1" fill="7" visible="no" active="no"/>
<layer number="11" name="Route11" color="4" fill="7" visible="no" active="no"/>
<layer number="12" name="Route12" color="1" fill="5" visible="no" active="no"/>
<layer number="13" name="Route13" color="4" fill="5" visible="no" active="no"/>
<layer number="14" name="Route14" color="1" fill="6" visible="no" active="no"/>
<layer number="15" name="Route15" color="4" fill="6" visible="no" active="no"/>
<layer number="16" name="Bottom" color="1" fill="1" visible="yes" active="yes"/>
<layer number="17" name="Pads" color="2" fill="1" visible="yes" active="yes"/>
<layer number="18" name="Vias" color="2" fill="1" visible="yes" active="yes"/>
<layer number="19" name="Unrouted" color="6" fill="1" visible="yes" active="yes"/>
<layer number="20" name="Dimension" color="15" fill="1" visible="yes" active="yes"/>
<layer number="21" name="tPlace" color="7" fill="1" visible="yes" active="yes"/>
<layer number="22" name="bPlace" color="7" fill="1" visible="yes" active="yes"/>
<layer number="23" name="tOrigins" color="15" fill="1" visible="yes" active="yes"/>
<layer number="24" name="bOrigins" color="15" fill="1" visible="yes" active="yes"/>
<layer number="25" name="tNames" color="7" fill="1" visible="no" active="yes"/>
<layer number="26" name="bNames" color="7" fill="1" visible="no" active="yes"/>
<layer number="27" name="tValues" color="7" fill="1" visible="no" active="yes"/>
<layer number="28" name="bValues" color="7" fill="1" visible="no" active="yes"/>
<layer number="29" name="tStop" color="7" fill="3" visible="no" active="yes"/>
<layer number="30" name="bStop" color="7" fill="6" visible="no" active="yes"/>
<layer number="31" name="tCream" color="7" fill="4" visible="no" active="yes"/>
<layer number="32" name="bCream" color="7" fill="5" visible="no" active="yes"/>
<layer number="33" name="tFinish" color="6" fill="3" visible="no" active="yes"/>
<layer number="34" name="bFinish" color="6" fill="6" visible="no" active="yes"/>
<layer number="35" name="tGlue" color="7" fill="4" visible="no" active="yes"/>
<layer number="36" name="bGlue" color="7" fill="5" visible="no" active="yes"/>
<layer number="37" name="tTest" color="7" fill="1" visible="no" active="yes"/>
<layer number="38" name="bTest" color="7" fill="1" visible="no" active="yes"/>
<layer number="39" name="tKeepout" color="4" fill="11" visible="yes" active="yes"/>
<layer number="40" name="bKeepout" color="1" fill="11" visible="yes" active="yes"/>
<layer number="41" name="tRestrict" color="4" fill="10" visible="yes" active="yes"/>
<layer number="42" name="bRestrict" color="1" fill="10" visible="yes" active="yes"/>
<layer number="43" name="vRestrict" color="2" fill="10" visible="no" active="yes"/>
<layer number="44" name="Drills" color="7" fill="1" visible="no" active="yes"/>
<layer number="45" name="Holes" color="7" fill="1" visible="no" active="yes"/>
<layer number="46" name="Milling" color="3" fill="1" visible="no" active="yes"/>
<layer number="47" name="Measures" color="7" fill="1" visible="no" active="yes"/>
<layer number="48" name="Document" color="7" fill="1" visible="no" active="yes"/>
<layer number="49" name="Reference" color="7" fill="1" visible="no" active="yes"/>
<layer number="50" name="dxf" color="7" fill="1" visible="no" active="yes"/>
<layer number="51" name="tDocu" color="7" fill="1" visible="no" active="yes"/>
<layer number="52" name="bDocu" color="7" fill="1" visible="no" active="yes"/>
<layer number="53" name="tGND_GNDA" color="7" fill="9" visible="no" active="no"/>
<layer number="54" name="bGND_GNDA" color="1" fill="9" visible="no" active="no"/>
<layer number="56" name="wert" color="7" fill="1" visible="no" active="yes"/>
<layer number="57" name="tCAD" color="7" fill="1" visible="no" active="yes"/>
<layer number="58" name="bCAD" color="7" fill="1" visible="no" active="yes"/>
<layer number="59" name="tCarbon" color="7" fill="1" visible="no" active="yes"/>
<layer number="60" name="bCarbon" color="7" fill="1" visible="no" active="yes"/>
<layer number="90" name="Modules" color="7" fill="1" visible="no" active="yes"/>
<layer number="91" name="Nets" color="2" fill="1" visible="no" active="no"/>
<layer number="92" name="Busses" color="1" fill="1" visible="no" active="no"/>
<layer number="93" name="Pins" color="2" fill="1" visible="no" active="no"/>
<layer number="94" name="Symbols" color="4" fill="1" visible="no" active="no"/>
<layer number="95" name="Names" color="7" fill="1" visible="no" active="no"/>
<layer number="96" name="Values" color="7" fill="1" visible="no" active="no"/>
<layer number="97" name="Info" color="7" fill="1" visible="no" active="no"/>
<layer number="98" name="Guide" color="6" fill="1" visible="no" active="no"/>
<layer number="99" name="SpiceOrder" color="7" fill="1" visible="no" active="no"/>
<layer number="100" name="Muster" color="7" fill="1" visible="no" active="no"/>
<layer number="101" name="Patch_Top" color="12" fill="4" visible="no" active="yes"/>
<layer number="102" name="Vscore" color="7" fill="1" visible="no" active="yes"/>
<layer number="103" name="tMap" color="7" fill="1" visible="no" active="yes"/>
<layer number="104" name="Name" color="7" fill="1" visible="no" active="yes"/>
<layer number="105" name="tPlate" color="7" fill="1" visible="no" active="yes"/>
<layer number="106" name="bPlate" color="7" fill="1" visible="no" active="yes"/>
<layer number="107" name="Crop" color="7" fill="1" visible="no" active="yes"/>
<layer number="108" name="fp8" color="7" fill="1" visible="no" active="yes"/>
<layer number="109" name="fp9" color="7" fill="1" visible="no" active="yes"/>
<layer number="110" name="fp0" color="7" fill="1" visible="no" active="yes"/>
<layer number="111" name="LPC17xx" color="7" fill="1" visible="no" active="yes"/>
<layer number="112" name="tSilk" color="7" fill="1" visible="no" active="yes"/>
<layer number="113" name="ReferenceLS" color="7" fill="1" visible="no" active="yes"/>
<layer number="116" name="Patch_BOT" color="9" fill="4" visible="no" active="yes"/>
<layer number="118" name="Rect_Pads" color="7" fill="1" visible="no" active="yes"/>
<layer number="120" name="Descript" color="7" fill="1" visible="no" active="yes"/>
<layer number="121" name="_tsilk" color="7" fill="1" visible="no" active="yes"/>
<layer number="122" name="_bsilk" color="7" fill="1" visible="no" active="yes"/>
<layer number="123" name="tTestmark" color="7" fill="1" visible="no" active="yes"/>
<layer number="124" name="bTestmark" color="7" fill="1" visible="no" active="yes"/>
<layer number="125" name="_tNames" color="7" fill="1" visible="no" active="yes"/>
<layer number="126" name="_bnames" color="7" fill="1" visible="no" active="yes"/>
<layer number="127" name="_tvalues" color="7" fill="1" visible="no" active="yes"/>
<layer number="128" name="_bvalues" color="7" fill="1" visible="no" active="yes"/>
<layer number="129" name="Mask" color="7" fill="1" visible="no" active="yes"/>
<layer number="130" name="130bmp" color="7" fill="1" visible="no" active="yes"/>
<layer number="131" name="tAdjust" color="7" fill="1" visible="no" active="yes"/>
<layer number="132" name="bAdjust" color="7" fill="1" visible="no" active="yes"/>
<layer number="144" name="Drill_legend" color="7" fill="1" visible="no" active="yes"/>
<layer number="150" name="Notes" color="7" fill="1" visible="no" active="yes"/>
<layer number="151" name="HeatSink" color="7" fill="1" visible="no" active="yes"/>
<layer number="152" name="_bDocu" color="7" fill="1" visible="no" active="yes"/>
<layer number="153" name="FabDoc1" color="7" fill="1" visible="no" active="yes"/>
<layer number="154" name="FabDoc2" color="7" fill="1" visible="no" active="yes"/>
<layer number="155" name="FabDoc3" color="7" fill="1" visible="no" active="yes"/>
<layer number="199" name="Contour" color="7" fill="1" visible="no" active="yes"/>
<layer number="200" name="200bmp" color="1" fill="10" visible="no" active="yes"/>
<layer number="201" name="201bmp" color="2" fill="10" visible="no" active="yes"/>
<layer number="202" name="202bmp" color="3" fill="10" visible="no" active="yes"/>
<layer number="203" name="203bmp" color="4" fill="10" visible="no" active="yes"/>
<layer number="204" name="204bmp" color="5" fill="10" visible="no" active="yes"/>
<layer number="205" name="205bmp" color="6" fill="10" visible="no" active="yes"/>
<layer number="206" name="206bmp" color="7" fill="10" visible="no" active="yes"/>
<layer number="207" name="207bmp" color="8" fill="10" visible="no" active="yes"/>
<layer number="208" name="208bmp" color="9" fill="10" visible="no" active="yes"/>
<layer number="209" name="209bmp" color="7" fill="1" visible="no" active="yes"/>
<layer number="210" name="210bmp" color="7" fill="1" visible="no" active="yes"/>
<layer number="211" name="211bmp" color="7" fill="1" visible="no" active="yes"/>
<layer number="212" name="212bmp" color="7" fill="1" visible="no" active="yes"/>
<layer number="213" name="213bmp" color="7" fill="1" visible="no" active="yes"/>
<layer number="214" name="214bmp" color="7" fill="1" visible="no" active="yes"/>
<layer number="215" name="215bmp" color="7" fill="1" visible="no" active="yes"/>
<layer number="216" name="216bmp" color="7" fill="1" visible="no" active="yes"/>
<layer number="217" name="217bmp" color="18" fill="1" visible="no" active="no"/>
<layer number="218" name="218bmp" color="19" fill="1" visible="no" active="no"/>
<layer number="219" name="219bmp" color="20" fill="1" visible="no" active="no"/>
<layer number="220" name="220bmp" color="21" fill="1" visible="no" active="no"/>
<layer number="221" name="221bmp" color="22" fill="1" visible="no" active="no"/>
<layer number="222" name="222bmp" color="23" fill="1" visible="no" active="no"/>
<layer number="223" name="223bmp" color="24" fill="1" visible="no" active="no"/>
<layer number="224" name="224bmp" color="25" fill="1" visible="no" active="no"/>
<layer number="225" name="Voltage" color="7" fill="1" visible="no" active="yes"/>
<layer number="226" name="226bmp" color="7" fill="1" visible="no" active="yes"/>
<layer number="227" name="227bmp" color="7" fill="1" visible="no" active="yes"/>
<layer number="228" name="228bmp" color="7" fill="1" visible="no" active="yes"/>
<layer number="229" name="229bmp" color="7" fill="1" visible="no" active="yes"/>
<layer number="230" name="230bmp" color="7" fill="1" visible="no" active="yes"/>
<layer number="231" name="Eagle3D_PG1" color="7" fill="1" visible="no" active="yes"/>
<layer number="232" name="Eagle3D_PG2" color="7" fill="1" visible="no" active="yes"/>
<layer number="233" name="Eagle3D_PG3" color="7" fill="1" visible="no" active="yes"/>
<layer number="248" name="Housing" color="7" fill="1" visible="no" active="yes"/>
<layer number="249" name="Edge" color="7" fill="1" visible="no" active="yes"/>
<layer number="250" name="Descript" color="3" fill="1" visible="no" active="no"/>
<layer number="251" name="SMDround" color="12" fill="11" visible="no" active="no"/>
<layer number="254" name="cooling" color="7" fill="1" visible="no" active="yes"/>
<layer number="255" name="routoute" color="7" fill="1" visible="no" active="yes"/>
</layers>
<board>
<plain>
<wire x1="0" y1="35" x2="62" y2="35" width="0.254" layer="20"/>
<wire x1="62" y1="35" x2="62" y2="0" width="0.254" layer="20"/>
<wire x1="62" y1="0" x2="0" y2="0" width="0.254" layer="20"/>
<wire x1="0" y1="0" x2="0" y2="35" width="0.254" layer="20"/>
<circle x="3" y="32.5" radius="1.5" width="0.3048" layer="1"/>
<circle x="59" y="2.5" radius="1.5" width="0.3048" layer="1"/>
<circle x="3" y="2.5" radius="1.5" width="0.3048" layer="1"/>
<circle x="3" y="32.5" radius="1.5" width="0.3048" layer="16"/>
<circle x="3" y="2.5" radius="1.5" width="0.3048" layer="16"/>
<circle x="59" y="2.5" radius="1.5" width="0.3048" layer="16"/>
<text x="60.1394" y="5.3869" size="0.8128" layer="1" rot="R90">RC Control v2.2</text>
<text x="59.3133" y="5.387" size="0.8128" layer="16" rot="MR90">RC Control v2.2</text>
<circle x="59" y="32.5" radius="1.5" width="0.3048" layer="16"/>
<circle x="59" y="32.5" radius="1.5" width="0.3048" layer="1"/>
</plain>
<libraries>
<library name="SparkFun">
<packages>
<package name="SMA-EDGE">
<description>&lt;b&gt;SMA Antenna Connector&lt;/b&gt;&lt;p&gt;
This is a footprint for an edge mount RF antenna. Works pretty well with SMA type connectors but may also work with other edge mount RF connectors. Keep in mind, these edge mount connectors assume you are using a 0.062" PCB thickness.</description>
<smd name="GND@0" x="0" y="0" dx="1.524" dy="4.064" layer="1" cream="no"/>
<smd name="SIG" x="2.54" y="0" dx="1.524" dy="4.064" layer="1" cream="no"/>
<smd name="GND@1" x="5.08" y="0" dx="1.524" dy="4.064" layer="1" cream="no"/>
<smd name="GND@2" x="0" y="0" dx="1.524" dy="4.064" layer="16"/>
<smd name="GND@3" x="5.08" y="0" dx="1.524" dy="4.064" layer="16"/>
</package>
<package name="SOT23-5">
<description>&lt;b&gt;Small Outline Transistor&lt;/b&gt;</description>
<wire x1="1.4224" y1="0.4294" x2="1.4224" y2="-0.4294" width="0.2032" layer="21"/>
<wire x1="1.4" y1="-0.8" x2="-1.4" y2="-0.8" width="0.1524" layer="51"/>
<wire x1="-1.4224" y1="-0.4294" x2="-1.4224" y2="0.4294" width="0.2032" layer="21"/>
<wire x1="-1.4" y1="0.8" x2="1.4" y2="0.8" width="0.1524" layer="51"/>
<wire x1="-0.2684" y1="0.8104" x2="0.2684" y2="0.8104" width="0.2032" layer="21"/>
<wire x1="1.4" y1="0.8" x2="1.4" y2="-0.8" width="0.1524" layer="51"/>
<wire x1="-1.4" y1="0.8" x2="-1.4" y2="-0.8" width="0.1524" layer="51"/>
<smd name="1" x="-0.95" y="-1.3001" dx="0.55" dy="1.2" layer="1"/>
<smd name="2" x="0" y="-1.3001" dx="0.55" dy="1.2" layer="1"/>
<smd name="3" x="0.95" y="-1.3001" dx="0.55" dy="1.2" layer="1"/>
<smd name="4" x="0.95" y="1.3001" dx="0.55" dy="1.2" layer="1"/>
<smd name="5" x="-0.95" y="1.3001" dx="0.55" dy="1.2" layer="1"/>
<text x="-0.889" y="2.159" size="0.4064" layer="25">&gt;NAME</text>
<text x="-0.9525" y="-0.1905" size="0.4064" layer="27">&gt;VALUE</text>
<rectangle x1="-1.2" y1="-1.5" x2="-0.7" y2="-0.85" layer="51"/>
<rectangle x1="-0.25" y1="-1.5" x2="0.25" y2="-0.85" layer="51"/>
<rectangle x1="0.7" y1="-1.5" x2="1.2" y2="-0.85" layer="51"/>
<rectangle x1="0.7" y1="0.85" x2="1.2" y2="1.5" layer="51"/>
<rectangle x1="-1.2" y1="0.85" x2="-0.7" y2="1.5" layer="51"/>
</package>
<package name="C0402">
<description>&lt;b&gt;CAPACITOR&lt;/b&gt;&lt;p&gt;
chip</description>
<wire x1="-0.245" y1="0.224" x2="0.245" y2="0.224" width="0.1524" layer="51"/>
<wire x1="0.245" y1="-0.224" x2="-0.245" y2="-0.224" width="0.1524" layer="51"/>
<wire x1="-1.473" y1="0.483" x2="1.473" y2="0.483" width="0.0508" layer="39"/>
<wire x1="1.473" y1="0.483" x2="1.473" y2="-0.483" width="0.0508" layer="39"/>
<wire x1="1.473" y1="-0.483" x2="-1.473" y2="-0.483" width="0.0508" layer="39"/>
<wire x1="-1.473" y1="-0.483" x2="-1.473" y2="0.483" width="0.0508" layer="39"/>
<smd name="1" x="-0.65" y="0" dx="0.7" dy="0.9" layer="1"/>
<smd name="2" x="0.65" y="0" dx="0.7" dy="0.9" layer="1"/>
<text x="-0.889" y="0.6985" size="0.4064" layer="25">&gt;NAME</text>
<text x="-1.0795" y="-1.143" size="0.4064" layer="27">&gt;VALUE</text>
<rectangle x1="-0.554" y1="-0.3048" x2="-0.254" y2="0.2951" layer="51"/>
<rectangle x1="0.2588" y1="-0.3048" x2="0.5588" y2="0.2951" layer="51"/>
<rectangle x1="-0.1999" y1="-0.3" x2="0.1999" y2="0.3" layer="35"/>
</package>
<package name="RESONATOR-SMD">
<wire x1="1.7" y1="0.65" x2="1.8" y2="0.65" width="0.2032" layer="21"/>
<wire x1="1.8" y1="0.65" x2="1.8" y2="-0.65" width="0.2032" layer="21"/>
<wire x1="1.8" y1="-0.65" x2="1.7" y2="-0.65" width="0.2032" layer="21"/>
<wire x1="-1.7" y1="-0.65" x2="-1.85" y2="-0.65" width="0.2032" layer="21"/>
<wire x1="-1.85" y1="-0.65" x2="-1.85" y2="0.65" width="0.2032" layer="21"/>
<wire x1="-1.85" y1="0.65" x2="-1.7" y2="0.65" width="0.2032" layer="21"/>
<wire x1="-1.6" y1="0.65" x2="1.6" y2="0.65" width="0.127" layer="51"/>
<wire x1="1.6" y1="0.65" x2="1.6" y2="-0.65" width="0.127" layer="51"/>
<wire x1="1.6" y1="-0.65" x2="-1.6" y2="-0.65" width="0.127" layer="51"/>
<wire x1="-1.6" y1="-0.65" x2="-1.6" y2="0.65" width="0.127" layer="51"/>
<smd name="1" x="-1.2" y="0" dx="0.7" dy="1.7" layer="1"/>
<smd name="2" x="0" y="0" dx="0.7" dy="1.7" layer="1"/>
<smd name="3" x="1.2" y="0" dx="0.7" dy="1.7" layer="1"/>
<text x="-0.889" y="1.27" size="0.4064" layer="25">&gt;Name</text>
<text x="-0.889" y="-1.524" size="0.4064" layer="27">&gt;Value</text>
</package>
<package name="TQFP32-08">
<description>&lt;B&gt;Thin Plasic Quad Flat Package&lt;/B&gt; Grid 0.8 mm</description>
<wire x1="3.505" y1="3.505" x2="3.505" y2="-3.505" width="0.1524" layer="21"/>
<wire x1="3.505" y1="-3.505" x2="-3.505" y2="-3.505" width="0.1524" layer="21"/>
<wire x1="-3.505" y1="-3.505" x2="-3.505" y2="3.15" width="0.1524" layer="21"/>
<wire x1="-3.15" y1="3.505" x2="3.505" y2="3.505" width="0.1524" layer="21"/>
<wire x1="-3.15" y1="3.505" x2="-3.505" y2="3.15" width="0.1524" layer="21"/>
<circle x="-2.7432" y="2.7432" radius="0.3592" width="0.1524" layer="21"/>
<smd name="1" x="-4.2926" y="2.8" dx="1.27" dy="0.5588" layer="1"/>
<smd name="2" x="-4.2926" y="2" dx="1.27" dy="0.5588" layer="1"/>
<smd name="3" x="-4.2926" y="1.2" dx="1.27" dy="0.5588" layer="1"/>
<smd name="4" x="-4.2926" y="0.4" dx="1.27" dy="0.5588" layer="1"/>
<smd name="5" x="-4.2926" y="-0.4" dx="1.27" dy="0.5588" layer="1"/>
<smd name="6" x="-4.2926" y="-1.2" dx="1.27" dy="0.5588" layer="1"/>
<smd name="7" x="-4.2926" y="-2" dx="1.27" dy="0.5588" layer="1"/>
<smd name="8" x="-4.2926" y="-2.8" dx="1.27" dy="0.5588" layer="1"/>
<smd name="9" x="-2.8" y="-4.2926" dx="0.5588" dy="1.27" layer="1"/>
<smd name="10" x="-2" y="-4.2926" dx="0.5588" dy="1.27" layer="1"/>
<smd name="11" x="-1.2" y="-4.2926" dx="0.5588" dy="1.27" layer="1"/>
<smd name="12" x="-0.4" y="-4.2926" dx="0.5588" dy="1.27" layer="1"/>
<smd name="13" x="0.4" y="-4.2926" dx="0.5588" dy="1.27" layer="1"/>
<smd name="14" x="1.2" y="-4.2926" dx="0.5588" dy="1.27" layer="1"/>
<smd name="15" x="2" y="-4.2926" dx="0.5588" dy="1.27" layer="1"/>
<smd name="16" x="2.8" y="-4.2926" dx="0.5588" dy="1.27" layer="1"/>
<smd name="17" x="4.2926" y="-2.8" dx="1.27" dy="0.5588" layer="1"/>
<smd name="18" x="4.2926" y="-2" dx="1.27" dy="0.5588" layer="1"/>
<smd name="19" x="4.2926" y="-1.2" dx="1.27" dy="0.5588" layer="1"/>
<smd name="20" x="4.2926" y="-0.4" dx="1.27" dy="0.5588" layer="1"/>
<smd name="21" x="4.2926" y="0.4" dx="1.27" dy="0.5588" layer="1"/>
<smd name="22" x="4.2926" y="1.2" dx="1.27" dy="0.5588" layer="1"/>
<smd name="23" x="4.2926" y="2" dx="1.27" dy="0.5588" layer="1"/>
<smd name="24" x="4.2926" y="2.8" dx="1.27" dy="0.5588" layer="1"/>
<smd name="25" x="2.8" y="4.2926" dx="0.5588" dy="1.27" layer="1"/>
<smd name="26" x="2" y="4.2926" dx="0.5588" dy="1.27" layer="1"/>
<smd name="27" x="1.2" y="4.2926" dx="0.5588" dy="1.27" layer="1"/>
<smd name="28" x="0.4" y="4.2926" dx="0.5588" dy="1.27" layer="1"/>
<smd name="29" x="-0.4" y="4.2926" dx="0.5588" dy="1.27" layer="1"/>
<smd name="30" x="-1.2" y="4.2926" dx="0.5588" dy="1.27" layer="1"/>
<smd name="31" x="-2" y="4.2926" dx="0.5588" dy="1.27" layer="1"/>
<smd name="32" x="-2.8" y="4.2926" dx="0.5588" dy="1.27" layer="1"/>
<text x="-3.175" y="5.08" size="0.4064" layer="25">&gt;NAME</text>
<text x="-2.54" y="-6.35" size="0.4064" layer="27">&gt;VALUE</text>
<rectangle x1="-4.5466" y1="2.5714" x2="-3.556" y2="3.0286" layer="51"/>
<rectangle x1="-4.5466" y1="1.7714" x2="-3.556" y2="2.2286" layer="51"/>
<rectangle x1="-4.5466" y1="0.9714" x2="-3.556" y2="1.4286" layer="51"/>
<rectangle x1="-4.5466" y1="0.1714" x2="-3.556" y2="0.6286" layer="51"/>
<rectangle x1="-4.5466" y1="-0.6286" x2="-3.556" y2="-0.1714" layer="51"/>
<rectangle x1="-4.5466" y1="-1.4286" x2="-3.556" y2="-0.9714" layer="51"/>
<rectangle x1="-4.5466" y1="-2.2286" x2="-3.556" y2="-1.7714" layer="51"/>
<rectangle x1="-4.5466" y1="-3.0286" x2="-3.556" y2="-2.5714" layer="51"/>
<rectangle x1="-3.0286" y1="-4.5466" x2="-2.5714" y2="-3.556" layer="51"/>
<rectangle x1="-2.2286" y1="-4.5466" x2="-1.7714" y2="-3.556" layer="51"/>
<rectangle x1="-1.4286" y1="-4.5466" x2="-0.9714" y2="-3.556" layer="51"/>
<rectangle x1="-0.6286" y1="-4.5466" x2="-0.1714" y2="-3.556" layer="51"/>
<rectangle x1="0.1714" y1="-4.5466" x2="0.6286" y2="-3.556" layer="51"/>
<rectangle x1="0.9714" y1="-4.5466" x2="1.4286" y2="-3.556" layer="51"/>
<rectangle x1="1.7714" y1="-4.5466" x2="2.2286" y2="-3.556" layer="51"/>
<rectangle x1="2.5714" y1="-4.5466" x2="3.0286" y2="-3.556" layer="51"/>
<rectangle x1="3.556" y1="-3.0286" x2="4.5466" y2="-2.5714" layer="51"/>
<rectangle x1="3.556" y1="-2.2286" x2="4.5466" y2="-1.7714" layer="51"/>
<rectangle x1="3.556" y1="-1.4286" x2="4.5466" y2="-0.9714" layer="51"/>
<rectangle x1="3.556" y1="-0.6286" x2="4.5466" y2="-0.1714" layer="51"/>
<rectangle x1="3.556" y1="0.1714" x2="4.5466" y2="0.6286" layer="51"/>
<rectangle x1="3.556" y1="0.9714" x2="4.5466" y2="1.4286" layer="51"/>
<rectangle x1="3.556" y1="1.7714" x2="4.5466" y2="2.2286" layer="51"/>
<rectangle x1="3.556" y1="2.5714" x2="4.5466" y2="3.0286" layer="51"/>
<rectangle x1="2.5714" y1="3.556" x2="3.0286" y2="4.5466" layer="51"/>
<rectangle x1="1.7714" y1="3.556" x2="2.2286" y2="4.5466" layer="51"/>
<rectangle x1="0.9714" y1="3.556" x2="1.4286" y2="4.5466" layer="51"/>
<rectangle x1="0.1714" y1="3.556" x2="0.6286" y2="4.5466" layer="51"/>
<rectangle x1="-0.6286" y1="3.556" x2="-0.1714" y2="4.5466" layer="51"/>
<rectangle x1="-1.4286" y1="3.556" x2="-0.9714" y2="4.5466" layer="51"/>
<rectangle x1="-2.2286" y1="3.556" x2="-1.7714" y2="4.5466" layer="51"/>
<rectangle x1="-3.0286" y1="3.556" x2="-2.5714" y2="4.5466" layer="51"/>
</package>
</packages>
</library>
<library name="rcl">
<packages>
<package name="C0402@1">
<description>&lt;b&gt;CAPACITOR&lt;/b&gt;</description>
<wire x1="-0.245" y1="0.224" x2="0.245" y2="0.224" width="0.1524" layer="51"/>
<wire x1="0.245" y1="-0.224" x2="-0.245" y2="-0.224" width="0.1524" layer="51"/>
<wire x1="-1.473" y1="0.483" x2="1.473" y2="0.483" width="0.0508" layer="39"/>
<wire x1="1.473" y1="0.483" x2="1.473" y2="-0.483" width="0.0508" layer="39"/>
<wire x1="1.473" y1="-0.483" x2="-1.473" y2="-0.483" width="0.0508" layer="39"/>
<wire x1="-1.473" y1="-0.483" x2="-1.473" y2="0.483" width="0.0508" layer="39"/>
<smd name="1" x="-0.65" y="0" dx="0.7" dy="0.9" layer="1"/>
<smd name="2" x="0.65" y="0" dx="0.7" dy="0.9" layer="1"/>
<text x="-0.635" y="0.635" size="1.27" layer="25">&gt;NAME</text>
<text x="-0.635" y="-1.905" size="1.27" layer="27">&gt;VALUE</text>
<rectangle x1="-0.554" y1="-0.3048" x2="-0.254" y2="0.2951" layer="51"/>
<rectangle x1="0.2588" y1="-0.3048" x2="0.5588" y2="0.2951" layer="51"/>
<rectangle x1="-0.1999" y1="-0.3" x2="0.1999" y2="0.3" layer="35"/>
</package>
<package name="C0805K">
<description>&lt;b&gt;Ceramic Chip Capacitor KEMET 0805 reflow solder&lt;/b&gt;&lt;p&gt;
Metric Code Size 2012</description>
<wire x1="-0.925" y1="0.6" x2="0.925" y2="0.6" width="0.1016" layer="51"/>
<wire x1="0.925" y1="-0.6" x2="-0.925" y2="-0.6" width="0.1016" layer="51"/>
<rectangle x1="-1" y1="-0.65" x2="-0.5" y2="0.65" layer="51"/>
<rectangle x1="0.5" y1="-0.65" x2="1" y2="0.65" layer="51"/>
<smd name="1" x="-1" y="0" dx="1.3" dy="1.6" layer="1"/>
<smd name="2" x="1" y="0" dx="1.3" dy="1.6" layer="1"/>
<text x="-1" y="0.875" size="1.016" layer="25">&gt;NAME</text>
<text x="-1" y="-1.9" size="1.016" layer="27">&gt;VALUE</text>
</package>
</packages>
</library>
<library name="Tekever_ASDS">
<packages>
<package name="HM-TRP">
<wire x1="0" y1="2" x2="20" y2="2" width="0.127" layer="51"/>
<wire x1="0" y1="-14" x2="20" y2="-14" width="0.127" layer="51"/>
<wire x1="19.9726" y1="-14.0033" x2="19.9939" y2="-14.0033" width="0.127" layer="21"/>
<wire x1="19.9939" y1="-14.0033" x2="19.9939" y2="-3.8851" width="0.127" layer="21"/>
<smd name="ANT" x="20" y="0" dx="3" dy="1.6" layer="1"/>
<smd name="CONFIG" x="0.5" y="-8" dx="3" dy="1.6" layer="1"/>
<smd name="DRX" x="0.5" y="-6" dx="3" dy="1.6" layer="1"/>
<smd name="DTX" x="0.5" y="-2" dx="3" dy="1.6" layer="1"/>
<smd name="ENABLE" x="0.5" y="-10" dx="3" dy="1.6" layer="1"/>
<smd name="GND" x="0.5" y="-4" dx="3" dy="1.6" layer="1"/>
<smd name="P$9" x="20" y="-2" dx="3" dy="1.6" layer="1"/>
<smd name="TEST" x="0.5" y="-12" dx="3" dy="1.6" layer="1"/>
<smd name="VCC" x="0.5" y="0" dx="3" dy="1.6" layer="1"/>
<text x="5.8024" y="-6.9149" size="1.27" layer="51">HM-TRP</text>
</package>
</packages>
</library>
<library name="con-headers-jp">
<packages>
<package name="SIP-100-06-40Y">
<description>&lt;b&gt;SIP Header&lt;/b&gt; - 0.1", 40 mil drill</description>
<wire x1="7.62" y1="-1.905" x2="7.62" y2="1.905" width="0.254" layer="21"/>
<wire x1="7.62" y1="1.905" x2="-5.08" y2="1.905" width="0.254" layer="21"/>
<wire x1="-5.08" y1="1.905" x2="-7.62" y2="1.905" width="0.254" layer="21"/>
<wire x1="-7.62" y1="1.905" x2="-7.62" y2="-1.905" width="0.254" layer="21"/>
<wire x1="-7.62" y1="-1.905" x2="-5.08" y2="-1.905" width="0.254" layer="21"/>
<wire x1="-5.08" y1="-1.905" x2="7.62" y2="-1.905" width="0.254" layer="21"/>
<wire x1="-5.08" y1="1.905" x2="-5.08" y2="-1.905" width="0.254" layer="21"/>
<pad name="2" x="-3.81" y="0" drill="1.016" shape="long" rot="R90"/>
<pad name="1" x="-6.35" y="0" drill="1.016" shape="long" rot="R90"/>
<pad name="3" x="-1.27" y="0" drill="1.016" shape="long" rot="R90"/>
<pad name="4" x="1.27" y="0" drill="1.016" shape="long" rot="R90"/>
<pad name="5" x="3.81" y="0" drill="1.016" shape="long" rot="R90"/>
<pad name="6" x="6.35" y="0" drill="1.016" shape="long" rot="R90"/>
<text x="-8.255" y="-1.5875" size="1.016" layer="25" ratio="18" rot="R90">&gt;NAME</text>
<text x="8.89" y="-1.5875" size="0.8128" layer="27" ratio="10" rot="R90">&gt;VALUE</text>
</package>
<package name="SIP-100-03-32">
<description>&lt;b&gt;SIP Header&lt;/b&gt; - 0.1", 32 mil drill</description>
<wire x1="3.81" y1="-1.27" x2="3.81" y2="1.27" width="0.254" layer="21"/>
<wire x1="3.81" y1="1.27" x2="-1.27" y2="1.27" width="0.254" layer="21"/>
<wire x1="-1.27" y1="1.27" x2="-3.81" y2="1.27" width="0.254" layer="21"/>
<wire x1="-3.81" y1="1.27" x2="-3.81" y2="-1.27" width="0.254" layer="21"/>
<wire x1="-3.81" y1="-1.27" x2="-1.27" y2="-1.27" width="0.254" layer="21"/>
<wire x1="-1.27" y1="-1.27" x2="3.81" y2="-1.27" width="0.254" layer="21"/>
<wire x1="-1.27" y1="1.27" x2="-1.27" y2="-1.27" width="0.254" layer="21"/>
<pad name="1" x="-2.54" y="0" drill="0.8128" diameter="1.524" shape="square" rot="R90"/>
<pad name="2" x="0" y="0" drill="0.8128" diameter="1.524" shape="octagon" rot="R90"/>
<pad name="3" x="2.54" y="0" drill="0.8128" diameter="1.524" shape="octagon" rot="R90"/>
<text x="-4.445" y="-1.27" size="1.016" layer="25" ratio="18" rot="R90">&gt;NAME</text>
<text x="5.08" y="-1.27" size="0.8128" layer="27" ratio="10" rot="R90">&gt;VALUE</text>
</package>
<package name="JUMPER_2PINS">
<wire x1="2.54" y1="-1.27" x2="2.54" y2="1.27" width="0.254" layer="21"/>
<wire x1="2.54" y1="1.27" x2="0" y2="1.27" width="0.254" layer="21"/>
<wire x1="0" y1="1.27" x2="-2.54" y2="1.27" width="0.254" layer="21"/>
<wire x1="-2.54" y1="1.27" x2="-2.54" y2="-1.27" width="0.254" layer="21"/>
<wire x1="-2.54" y1="-1.27" x2="0" y2="-1.27" width="0.254" layer="21"/>
<wire x1="0" y1="-1.27" x2="2.54" y2="-1.27" width="0.254" layer="21"/>
<pad name="1" x="-1.27" y="0" drill="0.8128" diameter="1.778" shape="square" rot="R90"/>
<pad name="2" x="1.27" y="0" drill="0.8128" diameter="1.778" shape="octagon" rot="R90"/>
<text x="-3.175" y="-1.27" size="1.016" layer="25" ratio="18" rot="R90">&gt;NAME</text>
<text x="3.81" y="-1.27" size="0.8128" layer="27" ratio="10" rot="R90">&gt;VALUE</text>
</package>
<package name="CONECTOR_3X2">
<wire x1="3.81" y1="-1.27" x2="3.81" y2="1.27" width="0.254" layer="21"/>
<wire x1="3.81" y1="1.27" x2="-1.27" y2="1.27" width="0.254" layer="21"/>
<wire x1="-1.27" y1="1.27" x2="-3.81" y2="1.27" width="0.254" layer="21"/>
<wire x1="-3.81" y1="1.27" x2="-3.81" y2="-1.27" width="0.254" layer="21"/>
<wire x1="-3.81" y1="-1.27" x2="-1.27" y2="-1.27" width="0.254" layer="21"/>
<pad name="4" x="0" y="0" drill="0.8128" diameter="1.524" shape="octagon" rot="R90"/>
<pad name="6" x="2.54" y="0" drill="0.8128" diameter="1.524" shape="octagon" rot="R90"/>
<wire x1="3.81" y1="-3.81" x2="3.81" y2="-1.27" width="0.254" layer="21"/>
<wire x1="-1.27" y1="-1.27" x2="-3.81" y2="-1.27" width="0.254" layer="21"/>
<wire x1="-3.81" y1="-1.27" x2="-3.81" y2="-3.81" width="0.254" layer="21"/>
<wire x1="-3.81" y1="-3.81" x2="-1.27" y2="-3.81" width="0.254" layer="21"/>
<wire x1="-1.27" y1="-3.81" x2="3.81" y2="-3.81" width="0.254" layer="21"/>
<wire x1="-1.27" y1="-1.27" x2="-1.27" y2="-3.81" width="0.254" layer="21"/>
<pad name="1" x="-2.54" y="-2.54" drill="0.8128" diameter="1.524" shape="square" rot="R90"/>
<pad name="3" x="0" y="-2.54" drill="0.8128" diameter="1.524" shape="octagon" rot="R90"/>
<pad name="5" x="2.54" y="-2.54" drill="0.8128" diameter="1.524" shape="octagon" rot="R90"/>
<text x="-4.445" y="-3.81" size="1.016" layer="25" ratio="18" rot="R90">&gt;NAME</text>
<text x="5.08" y="-3.81" size="0.8128" layer="27" ratio="10" rot="R90">&gt;VALUE</text>
<pad name="2" x="-2.54" y="0" drill="0.8128" diameter="1.524" shape="octagon" rot="R90"/>
</package>
<package name="CONECTOR_6X2">
<wire x1="3.845" y1="0" x2="-1.305" y2="0" width="0.254" layer="21"/>
<wire x1="-1.305" y1="0" x2="-1.305" y2="-15.24" width="0.254" layer="21"/>
<text x="-1.5875" y="0.635" size="1.016" layer="25" ratio="18">&gt;NAME</text>
<text x="-1.5875" y="-16.51" size="0.8128" layer="27" ratio="10">&gt;VALUE</text>
<wire x1="-1.305" y1="-15.24" x2="3.845" y2="-15.24" width="0.254" layer="21"/>
<wire x1="3.845" y1="-15.24" x2="3.845" y2="0" width="0.254" layer="21"/>
<pad name="4" x="2.54" y="-3.81" drill="0.8128" diameter="1.524" shape="octagon"/>
<pad name="6" x="2.54" y="-6.35" drill="0.8128" diameter="1.524" shape="octagon"/>
<wire x1="1.27" y1="-2.54" x2="1.27" y2="0" width="0.254" layer="21"/>
<wire x1="1.27" y1="-2.54" x2="-1.27" y2="-2.54" width="0.254" layer="21"/>
<pad name="1" x="0" y="-1.27" drill="0.8128" diameter="1.524" shape="square"/>
<pad name="3" x="0" y="-3.81" drill="0.8128" diameter="1.524" shape="octagon"/>
<pad name="5" x="0" y="-6.35" drill="0.8128" diameter="1.524" shape="octagon"/>
<pad name="2" x="2.54" y="-1.27" drill="0.8128" diameter="1.524" shape="octagon"/>
<pad name="7" x="0" y="-8.89" drill="0.8128" diameter="1.524" shape="octagon"/>
<pad name="8" x="2.54" y="-8.89" drill="0.8128" diameter="1.524" shape="octagon"/>
<pad name="9" x="0" y="-11.43" drill="0.8128" diameter="1.524" shape="octagon"/>
<pad name="10" x="2.54" y="-11.43" drill="0.8128" diameter="1.524" shape="octagon"/>
<pad name="11" x="0" y="-13.97" drill="0.8128" diameter="1.524" shape="octagon"/>
<pad name="12" x="2.54" y="-13.97" drill="0.8128" diameter="1.524" shape="octagon"/>
</package>
</packages>
</library>
<library name="led">
<packages>
<package name="CHIPLED_0603">
<description>&lt;b&gt;CHIPLED&lt;/b&gt;&lt;p&gt;
Source: http://www.osram.convergy.de/ ... LG_LY Q971.pdf</description>
<wire x1="-0.3" y1="0.8" x2="0.3" y2="0.8" width="0.1016" layer="51" curve="170.055574"/>
<wire x1="-0.275" y1="-0.825" x2="0.275" y2="-0.825" width="0.0508" layer="51" curve="-180"/>
<wire x1="-0.4" y1="0.375" x2="-0.4" y2="-0.35" width="0.1016" layer="51"/>
<wire x1="0.4" y1="0.35" x2="0.4" y2="-0.35" width="0.1016" layer="51"/>
<circle x="-0.35" y="0.625" radius="0.075" width="0.0508" layer="51"/>
<smd name="C" x="0" y="0.75" dx="0.8" dy="0.8" layer="1"/>
<smd name="A" x="0" y="-0.75" dx="0.8" dy="0.8" layer="1"/>
<text x="-0.635" y="-1.27" size="1.27" layer="25" rot="R90">&gt;NAME</text>
<text x="1.905" y="-1.27" size="1.27" layer="27" rot="R90">&gt;VALUE</text>
<rectangle x1="-0.45" y1="0.7" x2="-0.25" y2="0.85" layer="51"/>
<rectangle x1="-0.275" y1="0.55" x2="-0.225" y2="0.6" layer="51"/>
<rectangle x1="-0.45" y1="0.35" x2="-0.4" y2="0.725" layer="51"/>
<rectangle x1="0.25" y1="0.55" x2="0.45" y2="0.85" layer="51"/>
<rectangle x1="-0.45" y1="0.35" x2="0.45" y2="0.575" layer="51"/>
<rectangle x1="-0.45" y1="-0.85" x2="-0.25" y2="-0.35" layer="51"/>
<rectangle x1="0.25" y1="-0.85" x2="0.45" y2="-0.35" layer="51"/>
<rectangle x1="-0.275" y1="-0.575" x2="0.275" y2="-0.35" layer="51"/>
<rectangle x1="-0.275" y1="-0.65" x2="-0.175" y2="-0.55" layer="51"/>
<rectangle x1="0.175" y1="-0.65" x2="0.275" y2="-0.55" layer="51"/>
<rectangle x1="-0.125" y1="0" x2="0.125" y2="0.25" layer="21"/>
</package>
</packages>
</library>
<library name="CONVERS">
<packages>
<package name="TEKEVER">
<polygon width="0.127" layer="1">
<vertex x="-1.9685" y="0.6985"/>
<vertex x="-1.9736" y="0.6934"/>
<vertex x="-1.9482" y="0.7061"/>
<vertex x="-1.9075" y="0.7112"/>
<vertex x="-1.8694" y="0.7112"/>
<vertex x="-1.8212" y="0.7061"/>
<vertex x="-1.7577" y="0.6883"/>
<vertex x="-1.7069" y="0.6706"/>
<vertex x="-1.651" y="0.6426"/>
<vertex x="-1.618" y="0.6198"/>
<vertex x="-1.5977" y="0.5969"/>
<vertex x="-1.585" y="0.5766"/>
<vertex x="-1.6053" y="0.5664"/>
<vertex x="-1.651" y="0.5613"/>
<vertex x="-1.7094" y="0.5613"/>
<vertex x="-1.7628" y="0.569"/>
<vertex x="-1.8136" y="0.5842"/>
<vertex x="-1.8694" y="0.6071"/>
<vertex x="-1.9253" y="0.6375"/>
<vertex x="-1.9533" y="0.6629"/>
<vertex x="-1.9685" y="0.6833"/>
</polygon>
<polygon width="0.127" layer="1">
<vertex x="0.4826" y="0.6071"/>
<vertex x="0.5258" y="0.602"/>
<vertex x="0.5918" y="0.5766"/>
<vertex x="0.6502" y="0.5436"/>
<vertex x="0.696" y="0.5131"/>
<vertex x="0.7137" y="0.4978"/>
<vertex x="0.6858" y="0.5029"/>
<vertex x="0.6528" y="0.5105"/>
<vertex x="0.5918" y="0.5334"/>
<vertex x="0.5207" y="0.574"/>
<vertex x="0.4928" y="0.5969"/>
</polygon>
<polygon width="0.127" layer="1">
<vertex x="-0.1245" y="0.8865"/>
<vertex x="-0.0813" y="0.8814"/>
<vertex x="-0.0356" y="0.8687"/>
<vertex x="0.0152" y="0.8484"/>
<vertex x="0.0533" y="0.8255"/>
<vertex x="0.0864" y="0.8026"/>
<vertex x="0.1041" y="0.7899"/>
<vertex x="0.1118" y="0.7849"/>
<vertex x="0.0711" y="0.7925"/>
<vertex x="0.0127" y="0.8128"/>
<vertex x="-0.0305" y="0.828"/>
<vertex x="-0.0762" y="0.8509"/>
<vertex x="-0.1168" y="0.8788"/>
<vertex x="-0.1219" y="0.8865"/>
</polygon>
<polygon width="0.127" layer="1">
<vertex x="1.5291" y="-0.4394"/>
<vertex x="1.5265" y="-0.4267"/>
<vertex x="1.5469" y="-0.4267"/>
<vertex x="1.5875" y="-0.4369"/>
<vertex x="1.6408" y="-0.4597"/>
<vertex x="1.6764" y="-0.4775"/>
<vertex x="1.717" y="-0.5105"/>
<vertex x="1.7628" y="-0.5537"/>
<vertex x="1.7856" y="-0.5842"/>
<vertex x="1.7907" y="-0.5918"/>
<vertex x="1.7247" y="-0.5842"/>
<vertex x="1.651" y="-0.5512"/>
<vertex x="1.6104" y="-0.5232"/>
<vertex x="1.557" y="-0.4775"/>
<vertex x="1.5291" y="-0.442"/>
</polygon>
<polygon width="0.127" layer="1">
<vertex x="1.5443" y="-0.8509"/>
<vertex x="1.5392" y="-0.8433"/>
<vertex x="1.5596" y="-0.8382"/>
<vertex x="1.59" y="-0.8407"/>
<vertex x="1.6332" y="-0.8534"/>
<vertex x="1.6739" y="-0.8687"/>
<vertex x="1.7145" y="-0.8915"/>
<vertex x="1.7653" y="-0.9271"/>
<vertex x="1.7932" y="-0.9576"/>
<vertex x="1.8237" y="-0.9931"/>
<vertex x="1.839" y="-1.0211"/>
<vertex x="1.8415" y="-1.0389"/>
<vertex x="1.8415" y="-1.0465"/>
<vertex x="1.8237" y="-1.0516"/>
<vertex x="1.7755" y="-1.0439"/>
<vertex x="1.717" y="-1.0211"/>
<vertex x="1.651" y="-0.9855"/>
<vertex x="1.6104" y="-0.9576"/>
<vertex x="1.5799" y="-0.9271"/>
<vertex x="1.5519" y="-0.8865"/>
<vertex x="1.5392" y="-0.856"/>
</polygon>
<polygon width="0.127" layer="1">
<vertex x="-1.6459" y="0.9931"/>
<vertex x="-1.651" y="0.9982"/>
<vertex x="-1.6256" y="1.0033"/>
<vertex x="-1.5672" y="1.0008"/>
<vertex x="-1.5215" y="0.9957"/>
<vertex x="-1.4707" y="0.9779"/>
<vertex x="-1.4275" y="0.9627"/>
<vertex x="-1.3843" y="0.9398"/>
<vertex x="-1.3487" y="0.9169"/>
<vertex x="-1.3208" y="0.8915"/>
<vertex x="-1.3157" y="0.8839"/>
<vertex x="-1.3462" y="0.8788"/>
<vertex x="-1.397" y="0.8788"/>
<vertex x="-1.4503" y="0.8865"/>
<vertex x="-1.4961" y="0.9017"/>
<vertex x="-1.5392" y="0.9169"/>
<vertex x="-1.5824" y="0.9398"/>
<vertex x="-1.6231" y="0.9652"/>
<vertex x="-1.6408" y="0.9855"/>
</polygon>
<polygon width="0.127" layer="1">
<vertex x="1.016" y="0.1778"/>
<vertex x="1.0236" y="0.1829"/>
<vertex x="1.0744" y="0.1829"/>
<vertex x="1.11" y="0.1753"/>
<vertex x="1.1405" y="0.1702"/>
<vertex x="1.1887" y="0.1524"/>
<vertex x="1.2421" y="0.1295"/>
<vertex x="1.2954" y="0.0965"/>
<vertex x="1.3386" y="0.0686"/>
<vertex x="1.3741" y="0.0406"/>
<vertex x="1.4046" y="0.0152"/>
<vertex x="1.43" y="-0.0178"/>
<vertex x="1.4453" y="-0.0406"/>
<vertex x="1.4478" y="-0.0533"/>
<vertex x="1.4503" y="-0.061"/>
<vertex x="1.4249" y="-0.0686"/>
<vertex x="1.3818" y="-0.066"/>
<vertex x="1.3437" y="-0.0584"/>
<vertex x="1.2979" y="-0.0432"/>
<vertex x="1.2395" y="-0.0203"/>
<vertex x="1.1786" y="0.0102"/>
<vertex x="1.1252" y="0.0457"/>
<vertex x="1.0897" y="0.0737"/>
<vertex x="1.0389" y="0.127"/>
<vertex x="1.0185" y="0.1575"/>
<vertex x="1.016" y="0.1702"/>
</polygon>
<polygon width="0.127" layer="1">
<vertex x="0.8382" y="-1.0947"/>
<vertex x="0.8382" y="-1.0693"/>
<vertex x="0.8484" y="-1.0338"/>
<vertex x="0.8738" y="-1.0135"/>
<vertex x="0.9093" y="-1.0008"/>
<vertex x="0.9576" y="-0.9982"/>
<vertex x="1.0008" y="-1.0008"/>
<vertex x="1.0643" y="-1.0135"/>
<vertex x="1.1227" y="-1.0363"/>
<vertex x="1.1735" y="-1.0617"/>
<vertex x="1.2217" y="-1.0871"/>
<vertex x="1.2675" y="-1.1176"/>
<vertex x="1.3233" y="-1.1659"/>
<vertex x="1.3691" y="-1.2192"/>
<vertex x="1.4046" y="-1.2624"/>
<vertex x="1.4275" y="-1.3005"/>
<vertex x="1.4402" y="-1.3462"/>
<vertex x="1.4427" y="-1.3919"/>
<vertex x="1.4376" y="-1.4249"/>
<vertex x="1.4275" y="-1.4402"/>
<vertex x="1.397" y="-1.458"/>
<vertex x="1.3513" y="-1.4681"/>
<vertex x="1.3005" y="-1.4707"/>
<vertex x="1.2192" y="-1.4554"/>
<vertex x="1.1278" y="-1.4199"/>
<vertex x="1.0287" y="-1.364"/>
<vertex x="0.9703" y="-1.3233"/>
<vertex x="0.9042" y="-1.2548"/>
<vertex x="0.856" y="-1.1836"/>
<vertex x="0.8382" y="-1.1354"/>
<vertex x="0.8357" y="-1.0897"/>
<vertex x="0.8433" y="-1.0566"/>
</polygon>
<polygon width="0.127" layer="1">
<vertex x="-0.0279" y="-1.1735"/>
<vertex x="-0.0381" y="-1.1633"/>
<vertex x="-0.033" y="-1.1328"/>
<vertex x="-0.0178" y="-1.1074"/>
<vertex x="0.0178" y="-1.0897"/>
<vertex x="0.0584" y="-1.0846"/>
<vertex x="0.1016" y="-1.0871"/>
<vertex x="0.1473" y="-1.0973"/>
<vertex x="0.1854" y="-1.1074"/>
<vertex x="0.2286" y="-1.1252"/>
<vertex x="0.2769" y="-1.1532"/>
<vertex x="0.3073" y="-1.1862"/>
<vertex x="0.3404" y="-1.2192"/>
<vertex x="0.3658" y="-1.2573"/>
<vertex x="0.3785" y="-1.2852"/>
<vertex x="0.3835" y="-1.3106"/>
<vertex x="0.3785" y="-1.3411"/>
<vertex x="0.3734" y="-1.3614"/>
<vertex x="0.3531" y="-1.3741"/>
<vertex x="0.32" y="-1.3868"/>
<vertex x="0.2667" y="-1.3919"/>
<vertex x="0.2235" y="-1.3868"/>
<vertex x="0.1829" y="-1.3716"/>
<vertex x="0.1422" y="-1.3564"/>
<vertex x="0.0991" y="-1.3335"/>
<vertex x="0.0508" y="-1.303"/>
<vertex x="0.0127" y="-1.2649"/>
<vertex x="-0.0203" y="-1.2141"/>
<vertex x="-0.0356" y="-1.1786"/>
</polygon>
<polygon width="0.127" layer="1">
<vertex x="-0.9728" y="-0.7645"/>
<vertex x="-1.0033" y="-0.7569"/>
<vertex x="-0.9931" y="-0.7214"/>
<vertex x="-0.9728" y="-0.696"/>
<vertex x="-0.9423" y="-0.6807"/>
<vertex x="-0.8941" y="-0.6756"/>
<vertex x="-0.8407" y="-0.6756"/>
<vertex x="-0.8128" y="-0.6756"/>
<vertex x="-0.7671" y="-0.6858"/>
<vertex x="-0.7366" y="-0.6985"/>
<vertex x="-0.7061" y="-0.7087"/>
<vertex x="-0.6706" y="-0.7264"/>
<vertex x="-0.6375" y="-0.7442"/>
<vertex x="-0.6147" y="-0.762"/>
<vertex x="-0.5893" y="-0.7874"/>
<vertex x="-0.569" y="-0.8153"/>
<vertex x="-0.5512" y="-0.8407"/>
<vertex x="-0.5436" y="-0.8687"/>
<vertex x="-0.5486" y="-0.8966"/>
<vertex x="-0.5639" y="-0.9195"/>
<vertex x="-0.5867" y="-0.9373"/>
<vertex x="-0.6299" y="-0.95"/>
<vertex x="-0.6731" y="-0.955"/>
<vertex x="-0.7137" y="-0.955"/>
<vertex x="-0.7722" y="-0.9449"/>
<vertex x="-0.8204" y="-0.9271"/>
<vertex x="-0.8636" y="-0.9068"/>
<vertex x="-0.8966" y="-0.8915"/>
<vertex x="-0.9373" y="-0.8636"/>
<vertex x="-0.9627" y="-0.8357"/>
<vertex x="-0.9855" y="-0.8001"/>
<vertex x="-1.0008" y="-0.7747"/>
<vertex x="-1.0033" y="-0.7569"/>
</polygon>
<polygon width="0.127" layer="1">
<vertex x="-1.9685" y="0.0381"/>
<vertex x="-1.971" y="0.0584"/>
<vertex x="-1.9406" y="0.0965"/>
<vertex x="-1.8999" y="0.1295"/>
<vertex x="-1.839" y="0.1549"/>
<vertex x="-1.7602" y="0.1575"/>
<vertex x="-1.7018" y="0.1575"/>
<vertex x="-1.6281" y="0.1473"/>
<vertex x="-1.5494" y="0.1321"/>
<vertex x="-1.4732" y="0.1067"/>
<vertex x="-1.4224" y="0.0838"/>
<vertex x="-1.3665" y="0.0559"/>
<vertex x="-1.3081" y="0.0178"/>
<vertex x="-1.2649" y="-0.0203"/>
<vertex x="-1.2319" y="-0.0686"/>
<vertex x="-1.2116" y="-0.1016"/>
<vertex x="-1.2065" y="-0.1346"/>
<vertex x="-1.2243" y="-0.1651"/>
<vertex x="-1.2522" y="-0.1956"/>
<vertex x="-1.2827" y="-0.2184"/>
<vertex x="-1.3335" y="-0.2311"/>
<vertex x="-1.3868" y="-0.2388"/>
<vertex x="-1.4478" y="-0.2413"/>
<vertex x="-1.5088" y="-0.2413"/>
<vertex x="-1.5748" y="-0.2337"/>
<vertex x="-1.6281" y="-0.2184"/>
<vertex x="-1.6891" y="-0.1981"/>
<vertex x="-1.7551" y="-0.1727"/>
<vertex x="-1.8136" y="-0.1448"/>
<vertex x="-1.8618" y="-0.1168"/>
<vertex x="-1.9075" y="-0.0762"/>
<vertex x="-1.9406" y="-0.033"/>
<vertex x="-1.9609" y="0.0051"/>
<vertex x="-1.9685" y="0.0356"/>
<vertex x="-1.9736" y="0.0508"/>
</polygon>
<polygon width="0.127" layer="1">
<vertex x="-1.0033" y="1.0617"/>
<vertex x="-1.0084" y="1.0643"/>
<vertex x="-0.9881" y="1.077"/>
<vertex x="-0.9576" y="1.0795"/>
<vertex x="-0.922" y="1.0795"/>
<vertex x="-0.8915" y="1.0744"/>
<vertex x="-0.8458" y="1.0668"/>
<vertex x="-0.8001" y="1.0566"/>
<vertex x="-0.7544" y="1.0389"/>
<vertex x="-0.7112" y="1.0211"/>
<vertex x="-0.6629" y="0.9982"/>
<vertex x="-0.6223" y="0.9779"/>
<vertex x="-0.5842" y="0.95"/>
<vertex x="-0.5512" y="0.9195"/>
<vertex x="-0.5258" y="0.8941"/>
<vertex x="-0.5182" y="0.8814"/>
<vertex x="-0.5232" y="0.8712"/>
<vertex x="-0.5385" y="0.8661"/>
<vertex x="-0.574" y="0.8636"/>
<vertex x="-0.6147" y="0.8661"/>
<vertex x="-0.6807" y="0.8763"/>
<vertex x="-0.7417" y="0.8941"/>
<vertex x="-0.7976" y="0.9119"/>
<vertex x="-0.8484" y="0.9347"/>
<vertex x="-0.8992" y="0.9601"/>
<vertex x="-0.9525" y="0.9957"/>
<vertex x="-0.983" y="1.0287"/>
<vertex x="-1.0033" y="1.0566"/>
</polygon>
<polygon width="0.127" layer="1">
<vertex x="-0.7341" y="0.2489"/>
<vertex x="-0.7315" y="0.2743"/>
<vertex x="-0.7137" y="0.3302"/>
<vertex x="-0.6731" y="0.3937"/>
<vertex x="-0.5994" y="0.447"/>
<vertex x="-0.4775" y="0.4699"/>
<vertex x="-0.3683" y="0.4674"/>
<vertex x="-0.2616" y="0.4623"/>
<vertex x="-0.127" y="0.4394"/>
<vertex x="-0.0102" y="0.4089"/>
<vertex x="0.094" y="0.3683"/>
<vertex x="0.2159" y="0.315"/>
<vertex x="0.3353" y="0.254"/>
<vertex x="0.442" y="0.193"/>
<vertex x="0.5461" y="0.1118"/>
<vertex x="0.6325" y="0.0305"/>
<vertex x="0.7061" y="-0.0483"/>
<vertex x="0.7595" y="-0.1168"/>
<vertex x="0.8052" y="-0.2007"/>
<vertex x="0.8153" y="-0.2642"/>
<vertex x="0.8052" y="-0.3429"/>
<vertex x="0.7849" y="-0.4013"/>
<vertex x="0.7417" y="-0.4369"/>
<vertex x="0.6629" y="-0.4674"/>
<vertex x="0.569" y="-0.4826"/>
<vertex x="0.4674" y="-0.4902"/>
<vertex x="0.3607" y="-0.4851"/>
<vertex x="0.2489" y="-0.4699"/>
<vertex x="0.1295" y="-0.4394"/>
<vertex x="-0.0051" y="-0.3912"/>
<vertex x="-0.1194" y="-0.3404"/>
<vertex x="-0.2718" y="-0.2642"/>
<vertex x="-0.4166" y="-0.1753"/>
<vertex x="-0.5055" y="-0.0991"/>
<vertex x="-0.5944" y="-0.0076"/>
<vertex x="-0.6604" y="0.0762"/>
<vertex x="-0.7137" y="0.1676"/>
<vertex x="-0.7366" y="0.2261"/>
<vertex x="-0.7341" y="0.2769"/>
</polygon>
<polygon width="0.0508" layer="1">
<vertex x="2.7686" y="0.2286"/>
<vertex x="2.921" y="0.2286"/>
<vertex x="2.921" y="0.4826"/>
<vertex x="3.175" y="0.4826"/>
<vertex x="3.175" y="0.2286"/>
<vertex x="4.1529" y="0.2286"/>
<vertex x="4.1529" y="-0.0127"/>
<vertex x="3.175" y="-0.0127"/>
<vertex x="3.175" y="-0.6858" curve="90"/>
<vertex x="3.4036" y="-0.9144"/>
<vertex x="3.8354" y="-0.9144" curve="90"/>
<vertex x="4.0259" y="-0.7239"/>
<vertex x="4.2799" y="-0.7239" curve="-90"/>
<vertex x="3.8735" y="-1.1303"/>
<vertex x="3.3782" y="-1.1303" curve="-90"/>
<vertex x="2.921" y="-0.6731"/>
<vertex x="2.921" y="-0.0127"/>
<vertex x="2.7686" y="-0.0127"/>
</polygon>
<polygon width="0.0508" layer="1">
<vertex x="4.7625" y="-0.2667"/>
<vertex x="5.3594" y="-0.2667"/>
<vertex x="5.3594" y="-0.4826"/>
<vertex x="4.7625" y="-0.4826"/>
<vertex x="4.7625" y="-0.6858" curve="90"/>
<vertex x="4.9911" y="-0.9144"/>
<vertex x="5.7277" y="-0.9144" curve="90"/>
<vertex x="5.9563" y="-0.6858"/>
<vertex x="5.9563" y="-0.6477"/>
<vertex x="6.2103" y="-0.6477"/>
<vertex x="6.2103" y="-0.6731" curve="-90"/>
<vertex x="5.7531" y="-1.1303"/>
<vertex x="4.9657" y="-1.1303" curve="-90"/>
<vertex x="4.5085" y="-0.6731"/>
<vertex x="4.5085" y="-0.2286" curve="-90"/>
<vertex x="4.9657" y="0.2286"/>
<vertex x="5.7531" y="0.2286" curve="-90"/>
<vertex x="6.2103" y="-0.2286"/>
<vertex x="6.2103" y="-0.4826"/>
<vertex x="5.3594" y="-0.4826"/>
<vertex x="5.3594" y="-0.2667"/>
<vertex x="5.9309" y="-0.2667"/>
<vertex x="5.9309" y="-0.2032" curve="90"/>
<vertex x="5.7023" y="0.0254"/>
<vertex x="5.0038" y="0.0254" curve="90"/>
<vertex x="4.7752" y="-0.2032"/>
<vertex x="4.7752" y="-0.2667"/>
</polygon>
<polygon width="0.0508" layer="1">
<vertex x="8.2931" y="-0.2667"/>
<vertex x="8.9916" y="-0.2667"/>
<vertex x="8.9916" y="-0.4191"/>
<vertex x="8.2931" y="-0.4191"/>
<vertex x="8.2931" y="-0.6858" curve="90.083607"/>
<vertex x="8.636" y="-1.016"/>
<vertex x="9.3726" y="-1.016" curve="90"/>
<vertex x="9.7028" y="-0.7366"/>
<vertex x="9.7028" y="-0.7239"/>
<vertex x="9.8425" y="-0.7239" curve="-90"/>
<vertex x="9.3853" y="-1.1303"/>
<vertex x="8.5979" y="-1.1303" curve="-90"/>
<vertex x="8.1407" y="-0.6731"/>
<vertex x="8.1407" y="-0.2286" curve="-90"/>
<vertex x="8.5979" y="0.2286"/>
<vertex x="9.3853" y="0.2286" curve="-90"/>
<vertex x="9.8425" y="-0.2286"/>
<vertex x="9.8425" y="-0.4191"/>
<vertex x="8.9916" y="-0.4191"/>
<vertex x="8.9916" y="-0.2667"/>
<vertex x="9.6901" y="-0.2667"/>
<vertex x="9.6901" y="-0.2032" curve="90"/>
<vertex x="9.3218" y="0.1143"/>
<vertex x="8.6233" y="0.1143" curve="90.052079"/>
<vertex x="8.2931" y="-0.2032"/>
</polygon>
<polygon width="0.0508" layer="1">
<vertex x="12.065" y="-0.2667"/>
<vertex x="12.7635" y="-0.2667"/>
<vertex x="12.7635" y="-0.4191"/>
<vertex x="12.065" y="-0.4191"/>
<vertex x="12.065" y="-0.6858" curve="90.083607"/>
<vertex x="12.4079" y="-1.016"/>
<vertex x="13.1445" y="-1.016" curve="90"/>
<vertex x="13.4747" y="-0.7366"/>
<vertex x="13.4747" y="-0.7239"/>
<vertex x="13.6144" y="-0.7239" curve="-90"/>
<vertex x="13.1572" y="-1.1303"/>
<vertex x="12.3698" y="-1.1303" curve="-90"/>
<vertex x="11.9126" y="-0.6731"/>
<vertex x="11.9126" y="-0.2286" curve="-90"/>
<vertex x="12.3698" y="0.2286"/>
<vertex x="13.1572" y="0.2286" curve="-90"/>
<vertex x="13.6144" y="-0.2286"/>
<vertex x="13.6144" y="-0.4191"/>
<vertex x="12.7635" y="-0.4191"/>
<vertex x="12.7635" y="-0.2667"/>
<vertex x="13.462" y="-0.2667"/>
<vertex x="13.462" y="-0.2032" curve="90"/>
<vertex x="13.0937" y="0.1143"/>
<vertex x="12.3952" y="0.1143" curve="90.052079"/>
<vertex x="12.065" y="-0.2032"/>
</polygon>
<polygon width="0.0508" layer="1">
<vertex x="6.4516" y="0.7493"/>
<vertex x="6.7183" y="0.7493"/>
<vertex x="6.7183" y="-0.1905"/>
<vertex x="7.0104" y="-0.1905"/>
<vertex x="7.5692" y="0.2286"/>
<vertex x="7.9502" y="0.2286"/>
<vertex x="7.2263" y="-0.3302"/>
<vertex x="8.0518" y="-1.143"/>
<vertex x="7.6835" y="-1.143"/>
<vertex x="6.9469" y="-0.4445"/>
<vertex x="6.7183" y="-0.4445"/>
<vertex x="6.7183" y="-1.143"/>
<vertex x="6.4516" y="-1.143"/>
</polygon>
<polygon width="0.0508" layer="1">
<vertex x="10.0457" y="0.2286"/>
<vertex x="10.2235" y="0.2286"/>
<vertex x="10.8331" y="-0.9525"/>
<vertex x="10.9093" y="-0.9525"/>
<vertex x="11.5443" y="0.2286"/>
<vertex x="11.7221" y="0.2286"/>
<vertex x="10.9982" y="-1.1303"/>
<vertex x="10.7569" y="-1.1303"/>
</polygon>
<polygon width="0.0508" layer="1">
<vertex x="14.1097" y="-0.2159"/>
<vertex x="14.1097" y="-1.1303"/>
<vertex x="13.9573" y="-1.1303"/>
<vertex x="13.9573" y="-0.2413" curve="-90"/>
<vertex x="14.4145" y="0.2159"/>
<vertex x="15.2019" y="0.2159" curve="-89.987808"/>
<vertex x="15.6591" y="-0.254"/>
<vertex x="15.5067" y="-0.254"/>
<vertex x="15.5067" y="-0.2286" curve="90.015559"/>
<vertex x="15.1384" y="0.1016"/>
<vertex x="14.4399" y="0.1016" curve="90.052079"/>
</polygon>
<polygon width="0.0508" layer="1">
<vertex x="13.9573" y="-0.3556"/>
<vertex x="13.9573" y="0.2286"/>
<vertex x="14.1097" y="0.2286"/>
<vertex x="14.1097" y="-0.3556"/>
</polygon>
</package>
</packages>
</library>
<library name="con-lstb">
<description>&lt;b&gt;Pin Headers&lt;/b&gt;&lt;p&gt;
Naming:&lt;p&gt;
MA = male&lt;p&gt;
# contacts - # rows&lt;p&gt;
W = angled&lt;p&gt;
&lt;author&gt;Created by librarian@cadsoft.de&lt;/author&gt;</description>
<packages>
<package name="MA08-1">
<description>&lt;b&gt;PIN HEADER&lt;/b&gt;</description>
<wire x1="-9.525" y1="1.27" x2="-8.255" y2="1.27" width="0.1524" layer="21"/>
<wire x1="-8.255" y1="1.27" x2="-7.62" y2="0.635" width="0.1524" layer="21"/>
<wire x1="-7.62" y1="-0.635" x2="-8.255" y2="-1.27" width="0.1524" layer="21"/>
<wire x1="-7.62" y1="0.635" x2="-6.985" y2="1.27" width="0.1524" layer="21"/>
<wire x1="-6.985" y1="1.27" x2="-5.715" y2="1.27" width="0.1524" layer="21"/>
<wire x1="-5.715" y1="1.27" x2="-5.08" y2="0.635" width="0.1524" layer="21"/>
<wire x1="-5.08" y1="-0.635" x2="-5.715" y2="-1.27" width="0.1524" layer="21"/>
<wire x1="-5.715" y1="-1.27" x2="-6.985" y2="-1.27" width="0.1524" layer="21"/>
<wire x1="-6.985" y1="-1.27" x2="-7.62" y2="-0.635" width="0.1524" layer="21"/>
<wire x1="-10.16" y1="0.635" x2="-10.16" y2="-0.635" width="0.1524" layer="21"/>
<wire x1="-9.525" y1="1.27" x2="-10.16" y2="0.635" width="0.1524" layer="21"/>
<wire x1="-10.16" y1="-0.635" x2="-9.525" y2="-1.27" width="0.1524" layer="21"/>
<wire x1="-8.255" y1="-1.27" x2="-9.525" y2="-1.27" width="0.1524" layer="21"/>
<wire x1="-5.08" y1="0.635" x2="-4.445" y2="1.27" width="0.1524" layer="21"/>
<wire x1="-4.445" y1="1.27" x2="-3.175" y2="1.27" width="0.1524" layer="21"/>
<wire x1="-3.175" y1="1.27" x2="-2.54" y2="0.635" width="0.1524" layer="21"/>
<wire x1="-2.54" y1="-0.635" x2="-3.175" y2="-1.27" width="0.1524" layer="21"/>
<wire x1="-3.175" y1="-1.27" x2="-4.445" y2="-1.27" width="0.1524" layer="21"/>
<wire x1="-4.445" y1="-1.27" x2="-5.08" y2="-0.635" width="0.1524" layer="21"/>
<wire x1="-1.905" y1="1.27" x2="-0.635" y2="1.27" width="0.1524" layer="21"/>
<wire x1="-0.635" y1="1.27" x2="0" y2="0.635" width="0.1524" layer="21"/>
<wire x1="0" y1="-0.635" x2="-0.635" y2="-1.27" width="0.1524" layer="21"/>
<wire x1="-1.905" y1="1.27" x2="-2.54" y2="0.635" width="0.1524" layer="21"/>
<wire x1="-2.54" y1="-0.635" x2="-1.905" y2="-1.27" width="0.1524" layer="21"/>
<wire x1="-0.635" y1="-1.27" x2="-1.905" y2="-1.27" width="0.1524" layer="21"/>
<wire x1="0.635" y1="1.27" x2="1.905" y2="1.27" width="0.1524" layer="21"/>
<wire x1="1.905" y1="1.27" x2="2.54" y2="0.635" width="0.1524" layer="21"/>
<wire x1="2.54" y1="-0.635" x2="1.905" y2="-1.27" width="0.1524" layer="21"/>
<wire x1="2.54" y1="0.635" x2="3.175" y2="1.27" width="0.1524" layer="21"/>
<wire x1="3.175" y1="1.27" x2="4.445" y2="1.27" width="0.1524" layer="21"/>
<wire x1="4.445" y1="1.27" x2="5.08" y2="0.635" width="0.1524" layer="21"/>
<wire x1="5.08" y1="-0.635" x2="4.445" y2="-1.27" width="0.1524" layer="21"/>
<wire x1="4.445" y1="-1.27" x2="3.175" y2="-1.27" width="0.1524" layer="21"/>
<wire x1="3.175" y1="-1.27" x2="2.54" y2="-0.635" width="0.1524" layer="21"/>
<wire x1="0.635" y1="1.27" x2="0" y2="0.635" width="0.1524" layer="21"/>
<wire x1="0" y1="-0.635" x2="0.635" y2="-1.27" width="0.1524" layer="21"/>
<wire x1="1.905" y1="-1.27" x2="0.635" y2="-1.27" width="0.1524" layer="21"/>
<wire x1="5.08" y1="0.635" x2="5.715" y2="1.27" width="0.1524" layer="21"/>
<wire x1="5.715" y1="1.27" x2="6.985" y2="1.27" width="0.1524" layer="21"/>
<wire x1="6.985" y1="1.27" x2="7.62" y2="0.635" width="0.1524" layer="21"/>
<wire x1="7.62" y1="-0.635" x2="6.985" y2="-1.27" width="0.1524" layer="21"/>
<wire x1="6.985" y1="-1.27" x2="5.715" y2="-1.27" width="0.1524" layer="21"/>
<wire x1="5.715" y1="-1.27" x2="5.08" y2="-0.635" width="0.1524" layer="21"/>
<wire x1="8.255" y1="1.27" x2="9.525" y2="1.27" width="0.1524" layer="21"/>
<wire x1="9.525" y1="1.27" x2="10.16" y2="0.635" width="0.1524" layer="21"/>
<wire x1="10.16" y1="0.635" x2="10.16" y2="-0.635" width="0.1524" layer="21"/>
<wire x1="10.16" y1="-0.635" x2="9.525" y2="-1.27" width="0.1524" layer="21"/>
<wire x1="8.255" y1="1.27" x2="7.62" y2="0.635" width="0.1524" layer="21"/>
<wire x1="7.62" y1="-0.635" x2="8.255" y2="-1.27" width="0.1524" layer="21"/>
<wire x1="9.525" y1="-1.27" x2="8.255" y2="-1.27" width="0.1524" layer="21"/>
<pad name="1" x="-8.89" y="0" drill="1.016" shape="long" rot="R90"/>
<pad name="2" x="-6.35" y="0" drill="1.016" shape="long" rot="R90"/>
<pad name="3" x="-3.81" y="0" drill="1.016" shape="long" rot="R90"/>
<pad name="4" x="-1.27" y="0" drill="1.016" shape="long" rot="R90"/>
<pad name="5" x="1.27" y="0" drill="1.016" shape="long" rot="R90"/>
<pad name="6" x="3.81" y="0" drill="1.016" shape="long" rot="R90"/>
<pad name="7" x="6.35" y="0" drill="1.016" shape="long" rot="R90"/>
<pad name="8" x="8.89" y="0" drill="1.016" shape="long" rot="R90"/>
<text x="-10.16" y="1.651" size="1.27" layer="25" ratio="10">&gt;NAME</text>
<text x="-9.398" y="-2.921" size="1.27" layer="21" ratio="10">1</text>
<text x="8.255" y="1.651" size="1.27" layer="21" ratio="10">8</text>
<text x="-1.27" y="-2.921" size="1.27" layer="27" ratio="10">&gt;VALUE</text>
<rectangle x1="-6.604" y1="-0.254" x2="-6.096" y2="0.254" layer="51"/>
<rectangle x1="-9.144" y1="-0.254" x2="-8.636" y2="0.254" layer="51"/>
<rectangle x1="-4.064" y1="-0.254" x2="-3.556" y2="0.254" layer="51"/>
<rectangle x1="-1.524" y1="-0.254" x2="-1.016" y2="0.254" layer="51"/>
<rectangle x1="3.556" y1="-0.254" x2="4.064" y2="0.254" layer="51"/>
<rectangle x1="1.016" y1="-0.254" x2="1.524" y2="0.254" layer="51"/>
<rectangle x1="6.096" y1="-0.254" x2="6.604" y2="0.254" layer="51"/>
<rectangle x1="8.636" y1="-0.254" x2="9.144" y2="0.254" layer="51"/>
</package>
</packages>
</library>
</libraries>
<attributes>
</attributes>
<variantdefs>
</variantdefs>
<classes>
<class number="0" name="default" width="0.2032" drill="0">
</class>
<class number="1" name="vcc" width="0.254" drill="0">
</class>
</classes>
<designrules name="Tekever_handmadev3">
<description language="de">&lt;b&gt;EAGLE Design Rules&lt;/b&gt;
&lt;p&gt;
Die Standard-Design-Rules sind so gewählt, dass sie für 
die meisten Anwendungen passen. Sollte ihre Platine 
besondere Anforderungen haben, treffen Sie die erforderlichen
Einstellungen hier und speichern die Design Rules unter 
einem neuen Namen ab.</description>
<description language="en">&lt;b&gt;EAGLE Design Rules&lt;/b&gt;
&lt;p&gt;
The default Design Rules have been set to cover
a wide range of applications. Your particular design
may have different requirements, so please make the
necessary adjustments and save your customized
design rules under a new name.</description>
<param name="layerSetup" value="(1*16)"/>
<param name="mtCopper" value="0.035mm 0.035mm 0.035mm 0.035mm 0.035mm 0.035mm 0.035mm 0.035mm 0.035mm 0.035mm 0.035mm 0.035mm 0.035mm 0.035mm 0.035mm 0.035mm"/>
<param name="mtIsolate" value="1.5mm 0.15mm 0.2mm 0.15mm 0.2mm 0.15mm 0.2mm 0.15mm 0.2mm 0.15mm 0.2mm 0.15mm 0.2mm 0.15mm 0.2mm"/>
<param name="mdWireWire" value="0.2489mm"/>
<param name="mdWirePad" value="0.2464mm"/>
<param name="mdWireVia" value="11mil"/>
<param name="mdPadPad" value="9.5mil"/>
<param name="mdPadVia" value="10mil"/>
<param name="mdViaVia" value="9.5mil"/>
<param name="mdSmdPad" value="10mil"/>
<param name="mdSmdVia" value="10mil"/>
<param name="mdSmdSmd" value="9.5mil"/>
<param name="mdViaViaSameLayer" value="8mil"/>
<param name="mnLayersViaInSmd" value="2"/>
<param name="mdCopperDimension" value="10mil"/>
<param name="mdDrill" value="10mil"/>
<param name="mdSmdStop" value="0mil"/>
<param name="msWidth" value="0.2464mm"/>
<param name="msDrill" value="0.5mm"/>
<param name="msMicroVia" value="9.99mm"/>
<param name="msBlindViaRatio" value="0.5"/>
<param name="rvPadTop" value="0.25"/>
<param name="rvPadInner" value="0.25"/>
<param name="rvPadBottom" value="0.25"/>
<param name="rvViaOuter" value="0.25"/>
<param name="rvViaInner" value="0.25"/>
<param name="rvMicroViaOuter" value="0.25"/>
<param name="rvMicroViaInner" value="0.25"/>
<param name="rlMinPadTop" value="10mil"/>
<param name="rlMaxPadTop" value="20mil"/>
<param name="rlMinPadInner" value="10mil"/>
<param name="rlMaxPadInner" value="20mil"/>
<param name="rlMinPadBottom" value="10mil"/>
<param name="rlMaxPadBottom" value="20mil"/>
<param name="rlMinViaOuter" value="8mil"/>
<param name="rlMaxViaOuter" value="20mil"/>
<param name="rlMinViaInner" value="8mil"/>
<param name="rlMaxViaInner" value="20mil"/>
<param name="rlMinMicroViaOuter" value="4mil"/>
<param name="rlMaxMicroViaOuter" value="20mil"/>
<param name="rlMinMicroViaInner" value="4mil"/>
<param name="rlMaxMicroViaInner" value="20mil"/>
<param name="psTop" value="-1"/>
<param name="psBottom" value="-1"/>
<param name="psFirst" value="-1"/>
<param name="psElongationLong" value="100"/>
<param name="psElongationOffset" value="100"/>
<param name="mvStopFrame" value="1"/>
<param name="mvCreamFrame" value="0"/>
<param name="mlMinStopFrame" value="4mil"/>
<param name="mlMaxStopFrame" value="4mil"/>
<param name="mlMinCreamFrame" value="0mil"/>
<param name="mlMaxCreamFrame" value="0mil"/>
<param name="mlViaStopLimit" value="0mil"/>
<param name="srRoundness" value="0"/>
<param name="srMinRoundness" value="0mil"/>
<param name="srMaxRoundness" value="0mil"/>
<param name="slThermalIsolate" value="20mil"/>
<param name="slThermalsForVias" value="0"/>
<param name="dpMaxLengthDifference" value="10mm"/>
<param name="dpGapFactor" value="2.5"/>
<param name="checkGrid" value="0"/>
<param name="checkAngle" value="0"/>
<param name="checkFont" value="1"/>
<param name="checkRestrict" value="1"/>
<param name="useDiameter" value="13"/>
<param name="maxErrors" value="50"/>
</designrules>
<autorouter>
<pass name="Default">
<param name="RoutingGrid" value="50mil"/>
<param name="tpViaShape" value="round"/>
<param name="PrefDir.1" value="|"/>
<param name="PrefDir.2" value="0"/>
<param name="PrefDir.3" value="0"/>
<param name="PrefDir.4" value="0"/>
<param name="PrefDir.5" value="0"/>
<param name="PrefDir.6" value="0"/>
<param name="PrefDir.7" value="0"/>
<param name="PrefDir.8" value="0"/>
<param name="PrefDir.9" value="0"/>
<param name="PrefDir.10" value="0"/>
<param name="PrefDir.11" value="0"/>
<param name="PrefDir.12" value="0"/>
<param name="PrefDir.13" value="0"/>
<param name="PrefDir.14" value="0"/>
<param name="PrefDir.15" value="0"/>
<param name="PrefDir.16" value="-"/>
<param name="cfVia" value="8"/>
<param name="cfNonPref" value="5"/>
<param name="cfChangeDir" value="2"/>
<param name="cfOrthStep" value="2"/>
<param name="cfDiagStep" value="3"/>
<param name="cfExtdStep" value="0"/>
<param name="cfBonusStep" value="1"/>
<param name="cfMalusStep" value="1"/>
<param name="cfPadImpact" value="4"/>
<param name="cfSmdImpact" value="4"/>
<param name="cfBusImpact" value="0"/>
<param name="cfHugging" value="3"/>
<param name="cfAvoid" value="4"/>
<param name="cfPolygon" value="10"/>
<param name="cfBase.1" value="0"/>
<param name="cfBase.2" value="1"/>
<param name="cfBase.3" value="1"/>
<param name="cfBase.4" value="1"/>
<param name="cfBase.5" value="1"/>
<param name="cfBase.6" value="1"/>
<param name="cfBase.7" value="1"/>
<param name="cfBase.8" value="1"/>
<param name="cfBase.9" value="1"/>
<param name="cfBase.10" value="1"/>
<param name="cfBase.11" value="1"/>
<param name="cfBase.12" value="1"/>
<param name="cfBase.13" value="1"/>
<param name="cfBase.14" value="1"/>
<param name="cfBase.15" value="1"/>
<param name="cfBase.16" value="0"/>
<param name="mnVias" value="20"/>
<param name="mnSegments" value="9999"/>
<param name="mnExtdSteps" value="9999"/>
<param name="mnRipupLevel" value="10"/>
<param name="mnRipupSteps" value="100"/>
<param name="mnRipupTotal" value="100"/>
</pass>
<pass name="Follow-me" refer="Default" active="yes">
</pass>
<pass name="Busses" refer="Default" active="yes">
<param name="cfNonPref" value="4"/>
<param name="cfBusImpact" value="4"/>
<param name="cfHugging" value="0"/>
<param name="mnVias" value="0"/>
</pass>
<pass name="Route" refer="Default" active="yes">
</pass>
<pass name="Optimize1" refer="Default" active="yes">
<param name="cfVia" value="99"/>
<param name="cfExtdStep" value="10"/>
<param name="cfHugging" value="1"/>
<param name="mnExtdSteps" value="1"/>
<param name="mnRipupLevel" value="0"/>
</pass>
<pass name="Optimize2" refer="Optimize1" active="yes">
<param name="cfNonPref" value="0"/>
<param name="cfChangeDir" value="6"/>
<param name="cfExtdStep" value="0"/>
<param name="cfBonusStep" value="2"/>
<param name="cfMalusStep" value="2"/>
<param name="cfPadImpact" value="2"/>
<param name="cfSmdImpact" value="2"/>
<param name="cfHugging" value="0"/>
</pass>
<pass name="Optimize3" refer="Optimize2" active="yes">
<param name="cfChangeDir" value="8"/>
<param name="cfPadImpact" value="0"/>
<param name="cfSmdImpact" value="0"/>
</pass>
<pass name="Optimize4" refer="Optimize3" active="yes">
<param name="cfChangeDir" value="25"/>
</pass>
</autorouter>
<elements>
<element name="C1" library="rcl" package="C0805K" value="10u" x="34.5412" y="28.1969" rot="R90"/>
<element name="C2" library="rcl" package="C0402@1" value="1u" x="43.9715" y="27.4657" rot="R90"/>
<element name="U$1" library="Tekever_ASDS" package="HM-TRP" value="HM-TRP" x="34.0904" y="23.3346"/>
<element name="J$1" library="SparkFun" package="SMA-EDGE" value="SMA_EDGE" x="59.3195" y="20.798" rot="R90"/>
<element name="U1" library="SparkFun" package="SOT23-5" value="V_REG_LDOSMD" x="40.5094" y="27.958" rot="R90"/>
<element name="C3" library="rcl" package="C0402@1" value="470p" x="36.9883" y="29.5932" rot="R90"/>
<element name="LED1" library="led" package="CHIPLED_0603" value="1" x="27.375" y="19.375" rot="R270"/>
<element name="J3" library="con-headers-jp" package="SIP-100-03-32" value="F-1X03-SIP-100-32" x="4.5" y="25.9678"/>
<element name="J4" library="con-headers-jp" package="SIP-100-03-32" value="F-1X03-SIP-100-32" x="4.5" y="23.4278"/>
<element name="J5" library="con-headers-jp" package="SIP-100-03-32" value="F-1X03-SIP-100-32" x="4.5" y="20.8828"/>
<element name="R2" library="SparkFun" package="C0402" value="10K" x="7.75" y="28.625" rot="R180"/>
<element name="C4" library="SparkFun" package="C0402" value="0.1uF" x="5" y="18.625"/>
<element name="C5" library="SparkFun" package="C0402" value="0.1uF" x="23.25" y="19.375" rot="R180"/>
<element name="Q1" library="SparkFun" package="RESONATOR-SMD" value="16MHz" x="10.125" y="14.125" rot="R180"/>
<element name="U2" library="SparkFun" package="TQFP32-08" value="ATMEGA168#" x="16" y="19.125"/>
<element name="R1" library="SparkFun" package="C0402" value="1K" x="23.25" y="16.25" rot="R180"/>
<element name="U$3" library="CONVERS" package="TEKEVER" value="TEKEVER" x="54.6663" y="33.3784" rot="MR0"/>
<element name="U$2" library="CONVERS" package="TEKEVER" value="TEKEVER" x="40.9788" y="33.3872"/>
<element name="J6" library="con-headers-jp" package="SIP-100-06-40Y" value="F-1X06-SIP-100-40Y" x="16.6" y="7.375" rot="R180"/>
<element name="J8" library="con-headers-jp" package="SIP-100-03-32" value="F-1X03-SIP-100-32" x="28.74" y="12.3527" rot="R270"/>
<element name="J9" library="con-headers-jp" package="SIP-100-03-32" value="F-1X03-SIP-100-32" x="26.2" y="12.3527" rot="R270"/>
<element name="SV1" library="con-lstb" package="MA08-1" value="" x="45" y="7" rot="R180">
<attribute name="OC_NEWARK" value="unknown" x="45" y="7" size="1.778" layer="27" rot="R180" display="off"/>
<attribute name="MPN" value="" x="45" y="7" size="1.778" layer="27" rot="R180" display="off"/>
<attribute name="MF" value="" x="45" y="7" size="1.778" layer="27" rot="R180" display="off"/>
<attribute name="OC_FARNELL" value="unknown" x="45" y="7" size="1.778" layer="27" rot="R180" display="off"/>
</element>
<element name="R3" library="SparkFun" package="C0402" value="NC" x="17.4841" y="2.7323" rot="R90"/>
<element name="R4" library="SparkFun" package="C0402" value="10K" x="15.4995" y="4.0177" rot="R270"/>
<element name="R5" library="SparkFun" package="C0402" value="NC" x="54.2669" y="3.2323" rot="R90"/>
<element name="R6" library="SparkFun" package="C0402" value="10K" x="51.8573" y="3.8417"/>
<element name="R7" library="SparkFun" package="C0402" value="NC" x="39.0983" y="2.8573" rot="R90"/>
<element name="R8" library="SparkFun" package="C0402" value="10K" x="37.3647" y="2.8573" rot="R90"/>
<element name="J12" library="con-headers-jp" package="SIP-100-06-40Y" value="F-1X06-SIP-100-40Y" x="27" y="3.125"/>
<element name="R9" library="SparkFun" package="C0402" value="10K" x="13.75" y="31.25" rot="R180"/>
<element name="R10" library="SparkFun" package="C0402" value="10K" x="13.75" y="33" rot="R180"/>
<element name="U$4" library="con-headers-jp" package="JUMPER_2PINS" value="F-1X02-" x="32" y="6.875" rot="R180"/>
<element name="U$5" library="con-headers-jp" package="CONECTOR_3X2" value="CONECTOR3X2" x="3" y="10.875" rot="R90"/>
<element name="U$6" library="con-headers-jp" package="CONECTOR_6X2" value="CONECTOR_6X2" x="31" y="32" rot="R270"/>
<element name="C6" library="SparkFun" package="C0402" value="0.1uF" x="7.375" y="17.625" rot="R90"/>
<element name="C7" library="SparkFun" package="C0402" value="0.1uF" x="23.25" y="17.875" rot="R180"/>
</elements>
<signals>
<signal name="GND">
<contactref element="C2" pad="2"/>
<contactref element="U1" pad="2"/>
<contactref element="U$1" pad="P$9"/>
<contactref element="J$1" pad="GND@0"/>
<contactref element="J$1" pad="GND@1"/>
<contactref element="J$1" pad="GND@2"/>
<contactref element="J$1" pad="GND@3"/>
<contactref element="U$1" pad="GND"/>
<contactref element="C3" pad="2"/>
<contactref element="C1" pad="2"/>
<contactref element="LED1" pad="C"/>
<contactref element="C4" pad="1"/>
<contactref element="C5" pad="1"/>
<contactref element="Q1" pad="2"/>
<contactref element="U2" pad="5"/>
<contactref element="U2" pad="3"/>
<contactref element="U2" pad="21"/>
<contactref element="J3" pad="1"/>
<contactref element="J4" pad="1"/>
<contactref element="J5" pad="1"/>
<polygon width="0.4064" layer="1" thermals="no" rank="2">
<vertex x="-7.6812" y="42.1028"/>
<vertex x="64.9137" y="41.6961"/>
<vertex x="64.696" y="-7.8498"/>
<vertex x="-7.6812" y="-8.6972"/>
</polygon>
<polygon width="0.4064" layer="16" thermals="no" rank="2">
<vertex x="65.062" y="41.9296"/>
<vertex x="-7.9809" y="41.9574"/>
<vertex x="-7.9809" y="-8.8426"/>
<vertex x="64.6804" y="-9.2524"/>
</polygon>
<contactref element="J6" pad="4"/>
<contactref element="R4" pad="1"/>
<contactref element="SV1" pad="7"/>
<contactref element="R6" pad="1"/>
<contactref element="R8" pad="1"/>
<contactref element="U$5" pad="6"/>
<contactref element="U$6" pad="1"/>
<contactref element="J12" pad="6"/>
<wire x1="41.8095" y1="27.958" x2="42.958" y2="27.958" width="0.5" layer="1"/>
<wire x1="42.958" y1="27.958" x2="43.125" y2="28.125" width="0.5" layer="1"/>
<wire x1="43.125" y1="28.125" x2="43.9622" y2="28.125" width="0.5" layer="1"/>
<wire x1="43.9622" y1="28.125" x2="43.9715" y2="28.1157" width="0.5" layer="1"/>
<contactref element="C6" pad="1"/>
<contactref element="C7" pad="1"/>
<wire x1="10.125" y1="14.125" x2="10.125" y2="12.625" width="0.254" layer="1"/>
<wire x1="10.125" y1="12.625" x2="9.625" y2="12.125" width="0.254" layer="1"/>
<via x="9.625" y="12.125" extent="1-16" drill="0.6" diameter="1.6764"/>
<via x="59.25" y="28.25" extent="1-16" drill="0.6" diameter="1.6764"/>
<via x="60.125" y="18.5" extent="1-16" drill="0.6" diameter="1.6764"/>
<wire x1="59.3195" y1="28.1805" x2="59.3195" y2="25.878" width="0.5" layer="16"/>
<via x="58" y="18.5" extent="1-16" drill="0.6" diameter="1.6764"/>
<via x="57.375" y="29.625" extent="1-16" drill="0.6" diameter="1.6764"/>
<wire x1="60.125" y1="18.5" x2="58" y2="18.5" width="0.5" layer="16"/>
<wire x1="60.1945" y1="18.5695" x2="60.125" y2="18.5" width="0.5" layer="16"/>
<wire x1="57.375" y1="29.625" x2="57.875" y2="29.625" width="0.5" layer="16"/>
<wire x1="57.875" y1="29.625" x2="59.25" y2="28.25" width="0.5" layer="16"/>
<wire x1="59.25" y1="28.25" x2="59.3195" y2="28.1805" width="0.5" layer="16"/>
<wire x1="59.3195" y1="20.798" x2="60.125" y2="20.798" width="0.5" layer="16"/>
<wire x1="60.125" y1="20.798" x2="60.125" y2="18.5" width="0.5" layer="16"/>
</signal>
<signal name="3V3">
<contactref element="U$1" pad="VCC"/>
<contactref element="U1" pad="5"/>
<contactref element="C1" pad="1"/>
<wire x1="34.5412" y1="27.1969" x2="34.5412" y2="23.3838" width="1" layer="1"/>
<wire x1="34.5412" y1="23.3838" x2="34.5904" y2="23.3346" width="1" layer="1"/>
<wire x1="34.5412" y1="27.1969" x2="34.7301" y2="27.008" width="0.5" layer="1"/>
<wire x1="34.7301" y1="27.008" x2="39.2093" y2="27.008" width="0.5" layer="1"/>
</signal>
<signal name="N$7">
<contactref element="U$1" pad="ANT"/>
<contactref element="J$1" pad="SIG"/>
<wire x1="59.3195" y1="23.338" x2="54.0938" y2="23.338" width="1.5" layer="1"/>
<wire x1="54.0938" y1="23.338" x2="54.0904" y2="23.3346" width="1.5" layer="1"/>
</signal>
<signal name="TEST">
<contactref element="U$1" pad="TEST"/>
</signal>
<signal name="N$2">
<contactref element="U1" pad="4"/>
<contactref element="C3" pad="1"/>
<wire x1="36.9883" y1="28.9432" x2="37.0235" y2="28.908" width="0.5" layer="1"/>
<wire x1="37.0235" y1="28.908" x2="39.2093" y2="28.908" width="0.5" layer="1"/>
</signal>
<signal name="MISO">
<contactref element="U2" pad="16"/>
<contactref element="U$5" pad="1"/>
<via x="21" y="14.125" extent="1-16" drill="0.6" diameter="1.6764"/>
<wire x1="18.8" y1="14.8324" x2="20.2926" y2="14.8324" width="0.254" layer="1"/>
<wire x1="20.2926" y1="14.8324" x2="21" y2="14.125" width="0.254" layer="1"/>
<wire x1="5.54" y1="8.335" x2="8.21" y2="8.335" width="0.254" layer="16"/>
<wire x1="8.21" y1="8.335" x2="9.25" y2="9.375" width="0.254" layer="16"/>
<wire x1="9.25" y1="9.375" x2="19.125" y2="9.375" width="0.254" layer="16"/>
<wire x1="19.125" y1="9.375" x2="21" y2="11.25" width="0.254" layer="16"/>
<wire x1="21" y1="11.25" x2="21" y2="14.125" width="0.254" layer="16"/>
</signal>
<signal name="SCK">
<contactref element="U2" pad="17"/>
<contactref element="R1" pad="2"/>
<contactref element="U$5" pad="3"/>
<via x="23.375" y="14.25" extent="1-16" drill="0.6" diameter="1.6764"/>
<wire x1="20.2926" y1="16.325" x2="22.525" y2="16.325" width="0.254" layer="1"/>
<wire x1="22.525" y1="16.325" x2="22.6" y2="16.25" width="0.254" layer="1"/>
<wire x1="22.6" y1="16.25" x2="22.6" y2="15.025" width="0.254" layer="1"/>
<wire x1="22.6" y1="15.025" x2="23.375" y2="14.25" width="0.254" layer="1"/>
<wire x1="23.375" y1="14.25" x2="22.125" y2="15.5" width="0.254" layer="16"/>
<wire x1="22.125" y1="15.5" x2="19.375" y2="15.5" width="0.254" layer="16"/>
<wire x1="19.375" y1="15.5" x2="18" y2="14.125" width="0.254" layer="16"/>
<wire x1="18" y1="14.125" x2="18" y2="11.375" width="0.254" layer="16"/>
<wire x1="18" y1="11.375" x2="17.375" y2="10.75" width="0.254" layer="16"/>
<wire x1="17.375" y1="10.75" x2="5.665" y2="10.75" width="0.254" layer="16"/>
<wire x1="5.665" y1="10.75" x2="5.54" y2="10.875" width="0.254" layer="16"/>
</signal>
<signal name="N$48">
<contactref element="LED1" pad="A"/>
<contactref element="R1" pad="1"/>
<wire x1="23.9" y1="16.25" x2="24.625" y2="16.25" width="0.254" layer="1"/>
<wire x1="24.625" y1="16.25" x2="25.25" y2="16.875" width="0.254" layer="1"/>
<wire x1="25.25" y1="16.875" x2="25.25" y2="19" width="0.254" layer="1"/>
<wire x1="25.25" y1="19" x2="25.625" y2="19.375" width="0.254" layer="1"/>
<wire x1="25.625" y1="19.375" x2="26.625" y2="19.375" width="0.254" layer="1"/>
</signal>
<signal name="MOSI">
<contactref element="U2" pad="15"/>
<contactref element="U$5" pad="4"/>
<via x="19.5" y="12.5" extent="1-16" drill="0.6" diameter="1.6764"/>
<wire x1="18" y1="14.8324" x2="18" y2="13.75" width="0.254" layer="1"/>
<wire x1="18" y1="13.75" x2="19.25" y2="12.5" width="0.254" layer="1"/>
<wire x1="19.25" y1="12.5" x2="19.5" y2="12.5" width="0.254" layer="1"/>
<wire x1="18" y1="10.125" x2="19.5" y2="11.625" width="0.254" layer="16"/>
<wire x1="19.5" y1="11.625" x2="19.5" y2="12.5" width="0.254" layer="16"/>
<wire x1="3" y1="10.875" x2="4.25" y2="9.625" width="0.254" layer="16"/>
<wire x1="4.25" y1="9.625" x2="7.5" y2="9.625" width="0.254" layer="16"/>
<wire x1="7.5" y1="9.625" x2="8" y2="10.125" width="0.254" layer="16"/>
<wire x1="8" y1="10.125" x2="18" y2="10.125" width="0.254" layer="16"/>
</signal>
<signal name="RESET">
<contactref element="U2" pad="29"/>
<contactref element="R2" pad="1"/>
<contactref element="U$5" pad="5"/>
<via x="11.75" y="28.625" extent="1-16" drill="0.6" diameter="1.6764"/>
<wire x1="15.6" y1="23.4176" x2="15.6" y2="27.15" width="0.254" layer="1"/>
<wire x1="5.54" y1="13.415" x2="9.125" y2="17" width="0.254" layer="16"/>
<wire x1="9.125" y1="17" x2="9.125" y2="27.375" width="0.254" layer="16"/>
<wire x1="9.125" y1="27.375" x2="10.375" y2="28.625" width="0.254" layer="16"/>
<wire x1="10.375" y1="28.625" x2="11.75" y2="28.625" width="0.254" layer="16"/>
<wire x1="15.6" y1="27.15" x2="14.125" y2="28.625" width="0.254" layer="1"/>
<wire x1="14.125" y1="28.625" x2="12.25" y2="28.625" width="0.254" layer="1"/>
<wire x1="12.25" y1="28.625" x2="11.75" y2="28.625" width="0.254" layer="1"/>
<wire x1="8.4" y1="28.625" x2="11.75" y2="28.625" width="0.254" layer="1"/>
</signal>
<signal name="DTX">
<contactref element="U$1" pad="DTX"/>
<contactref element="J8" pad="1"/>
<wire x1="34.5904" y1="21.3346" x2="30.4596" y2="21.3346" width="0.4" layer="1"/>
<wire x1="30.4596" y1="21.3346" x2="30.375" y2="21.25" width="0.4" layer="1"/>
<via x="30.375" y="21.25" extent="1-16" drill="0.6" diameter="1.6764"/>
<wire x1="30.375" y1="21.25" x2="28.74" y2="19.615" width="0.4" layer="16"/>
<wire x1="28.74" y1="19.615" x2="28.74" y2="14.8927" width="0.4" layer="16"/>
</signal>
<signal name="DRX">
<contactref element="U$1" pad="DRX"/>
<contactref element="J9" pad="1"/>
<wire x1="34.5904" y1="17.3346" x2="27.1654" y2="17.3346" width="0.4" layer="1"/>
<wire x1="27.1654" y1="17.3346" x2="27.125" y2="17.375" width="0.4" layer="1"/>
<via x="27.125" y="17.375" extent="1-16" drill="0.6" diameter="1.6764"/>
<wire x1="27.125" y1="17.375" x2="26.2" y2="16.45" width="0.4" layer="16"/>
<wire x1="26.2" y1="16.45" x2="26.2" y2="14.8927" width="0.4" layer="16"/>
</signal>
<signal name="DCTS">
<contactref element="U$1" pad="CONFIG"/>
</signal>
<signal name="DRTS">
<contactref element="U$1" pad="ENABLE"/>
<contactref element="U2" pad="14"/>
<contactref element="R8" pad="2"/>
<contactref element="R7" pad="2"/>
<wire x1="17.2" y1="14.8324" x2="17.2" y2="13.55" width="0.254" layer="1"/>
<wire x1="18.75" y1="11.125" x2="30.25" y2="11.125" width="0.254" layer="1"/>
<wire x1="30.25" y1="11.125" x2="32.4596" y2="13.3346" width="0.254" layer="1"/>
<wire x1="32.4596" y1="13.3346" x2="34.5904" y2="13.3346" width="0.254" layer="1"/>
<wire x1="34.5904" y1="13.3346" x2="36.5404" y2="13.3346" width="0.254" layer="1"/>
<wire x1="36.5404" y1="13.3346" x2="37.375" y2="12.5" width="0.254" layer="1"/>
<wire x1="37.375" y1="12.5" x2="37.375" y2="3.534" width="0.254" layer="1"/>
<wire x1="39.0983" y1="3.5073" x2="37.3647" y2="3.5073" width="0.254" layer="1"/>
<wire x1="17.2" y1="13.55" x2="18" y2="12.75" width="0.254" layer="1"/>
<wire x1="18" y1="12.75" x2="18" y2="11.875" width="0.254" layer="1"/>
<wire x1="18" y1="11.875" x2="18.75" y2="11.125" width="0.254" layer="1"/>
<wire x1="37.3647" y1="3.5073" x2="37.3647" y2="3.5237" width="0.254" layer="1"/>
<wire x1="37.3647" y1="3.5237" x2="37.375" y2="3.534" width="0.254" layer="1"/>
</signal>
<signal name="AREF">
<contactref element="C5" pad="2"/>
<contactref element="U2" pad="20"/>
<wire x1="20.2926" y1="18.725" x2="21.475" y2="18.725" width="0.4" layer="1"/>
<wire x1="21.475" y1="18.725" x2="22.125" y2="19.375" width="0.4" layer="1"/>
<wire x1="22.125" y1="19.375" x2="22.6" y2="19.375" width="0.4" layer="1"/>
</signal>
<signal name="TXO">
<contactref element="U2" pad="31"/>
<contactref element="J8" pad="2"/>
<via x="11.125" y="25.375" extent="1-16" drill="0.6" diameter="1.6764"/>
<wire x1="28.74" y1="12.3527" x2="29.9777" y2="12.3527" width="0.254" layer="16"/>
<wire x1="29.9777" y1="12.3527" x2="32.375" y2="14.75" width="0.254" layer="16"/>
<wire x1="32.375" y1="14.75" x2="32.375" y2="22" width="0.254" layer="16"/>
<wire x1="13" y1="27.5" x2="11.125" y2="25.625" width="0.254" layer="16"/>
<wire x1="11.125" y1="25.625" x2="11.125" y2="25.375" width="0.254" layer="16"/>
<wire x1="14" y1="23.4176" x2="14" y2="24.375" width="0.254" layer="1"/>
<wire x1="14" y1="24.375" x2="13.625" y2="24.75" width="0.254" layer="1"/>
<wire x1="13.625" y1="24.75" x2="11.75" y2="24.75" width="0.254" layer="1"/>
<wire x1="11.75" y1="24.75" x2="11.125" y2="25.375" width="0.254" layer="1"/>
<wire x1="25.125" y1="27.5" x2="13" y2="27.5" width="0.254" layer="16"/>
<wire x1="25.125" y1="27.5" x2="27.375" y2="25.25" width="0.254" layer="16"/>
<wire x1="27.375" y1="25.25" x2="27.375" y2="23.125" width="0.254" layer="16"/>
<wire x1="27.375" y1="23.125" x2="27.625" y2="22.875" width="0.254" layer="16"/>
<wire x1="27.625" y1="22.875" x2="31.5" y2="22.875" width="0.254" layer="16"/>
<wire x1="31.5" y1="22.875" x2="32.375" y2="22" width="0.254" layer="16"/>
</signal>
<signal name="D2">
<contactref element="U2" pad="32"/>
<contactref element="J3" pad="3"/>
<wire x1="13.2" y1="23.4176" x2="9.5824" y2="23.4176" width="0.4" layer="1"/>
<wire x1="9.5824" y1="23.4176" x2="7.04" y2="25.96" width="0.4" layer="1"/>
<wire x1="7.04" y1="25.96" x2="7.04" y2="25.9678" width="0.4" layer="1"/>
</signal>
<signal name="D3">
<contactref element="U2" pad="1"/>
<contactref element="J4" pad="3"/>
<wire x1="11.7074" y1="21.925" x2="8.5428" y2="21.925" width="0.4" layer="1"/>
<wire x1="8.5428" y1="21.925" x2="7.04" y2="23.4278" width="0.4" layer="1"/>
</signal>
<signal name="D4">
<contactref element="U2" pad="2"/>
<contactref element="J5" pad="3"/>
<wire x1="11.7074" y1="21.125" x2="7.2822" y2="21.125" width="0.5" layer="1"/>
<wire x1="7.2822" y1="21.125" x2="7.04" y2="20.8828" width="0.5" layer="1"/>
</signal>
<signal name="N$13">
<contactref element="Q1" pad="1"/>
<contactref element="U2" pad="8"/>
<wire x1="11.325" y1="14.125" x2="11.325" y2="16.325" width="0.5" layer="1"/>
<wire x1="11.325" y1="16.325" x2="11.7074" y2="16.325" width="0.5" layer="1"/>
</signal>
<signal name="N$14">
<contactref element="Q1" pad="3"/>
<contactref element="U2" pad="7"/>
<wire x1="11.7074" y1="17.125" x2="10.75" y2="17.125" width="0.5" layer="1"/>
<wire x1="10.75" y1="17.125" x2="8.925" y2="15.3" width="0.5" layer="1"/>
<wire x1="8.925" y1="15.3" x2="8.925" y2="14.125" width="0.5" layer="1"/>
</signal>
<signal name="RXI">
<contactref element="U2" pad="30"/>
<contactref element="J9" pad="2"/>
<wire x1="14.8" y1="23.4176" x2="14.8" y2="23.7" width="0.254" layer="1"/>
<via x="13.875" y="26.125" extent="1-16" drill="0.6" diameter="1.6764"/>
<wire x1="26.25" y1="18.75" x2="26.25" y2="25.125" width="0.254" layer="16"/>
<wire x1="14.8" y1="23.4176" x2="14.8" y2="25.2" width="0.254" layer="1"/>
<wire x1="14.8" y1="25.2" x2="13.875" y2="26.125" width="0.254" layer="1"/>
<wire x1="26.25" y1="25.125" x2="24.5" y2="26.875" width="0.254" layer="16"/>
<wire x1="24.5" y1="26.875" x2="14.625" y2="26.875" width="0.254" layer="16"/>
<wire x1="14.625" y1="26.875" x2="13.875" y2="26.125" width="0.254" layer="16"/>
<wire x1="26.2" y1="12.3527" x2="25.3973" y2="12.3527" width="0.254" layer="16"/>
<wire x1="25.3973" y1="12.3527" x2="24.875" y2="12.875" width="0.254" layer="16"/>
<wire x1="24.875" y1="12.875" x2="24.875" y2="17.375" width="0.254" layer="16"/>
<wire x1="24.875" y1="17.375" x2="26.25" y2="18.75" width="0.254" layer="16"/>
</signal>
<signal name="5VIN">
<contactref element="R2" pad="2"/>
<contactref element="U2" pad="18"/>
<contactref element="U2" pad="4"/>
<contactref element="U2" pad="6"/>
<contactref element="C4" pad="2"/>
<contactref element="J3" pad="2"/>
<contactref element="J4" pad="2"/>
<contactref element="J5" pad="2"/>
<contactref element="C2" pad="1"/>
<contactref element="U1" pad="1"/>
<contactref element="U1" pad="3"/>
<contactref element="J6" pad="6"/>
<contactref element="R3" pad="1"/>
<contactref element="SV1" pad="8"/>
<contactref element="R5" pad="1"/>
<contactref element="R7" pad="1"/>
<contactref element="R9" pad="2"/>
<contactref element="U$4" pad="1"/>
<contactref element="U$5" pad="2"/>
<contactref element="U$6" pad="2"/>
<contactref element="R10" pad="2"/>
<polygon width="0.3" layer="16" orphans="yes" thermals="no">
<vertex x="0" y="15"/>
<vertex x="0" y="35.125"/>
<vertex x="61.75" y="35.125"/>
<vertex x="61.75" y="0"/>
<vertex x="0" y="0"/>
<vertex x="0" y="14.75"/>
<vertex x="2.375" y="14.75"/>
<vertex x="2.375" y="9.5"/>
<vertex x="4.25" y="9.5"/>
<vertex x="4.25" y="6.25"/>
<vertex x="9.25" y="6.25"/>
<vertex x="9.25" y="9.5"/>
<vertex x="11.125" y="9.5"/>
<vertex x="11.125" y="6.25"/>
<vertex x="32.5" y="6.25"/>
<vertex x="32.5" y="8.5"/>
<vertex x="37.25" y="8.5"/>
<vertex x="37.25" y="4.375"/>
<vertex x="54.375" y="4.375"/>
<vertex x="54.375" y="26.75"/>
<vertex x="45.625" y="26.75"/>
<vertex x="45.625" y="29.875"/>
<vertex x="32.5" y="29.875"/>
<vertex x="32.5" y="28.625"/>
<vertex x="28.875" y="28.625"/>
<vertex x="28.875" y="30.75"/>
<vertex x="7.625" y="30.75"/>
<vertex x="7.625" y="15"/>
</polygon>
<wire x1="41.8095" y1="27.008" x2="42.375" y2="27.008" width="0.5" layer="1"/>
<wire x1="42.375" y1="27.008" x2="43.117" y2="27.008" width="0.5" layer="1"/>
<wire x1="43.117" y1="27.008" x2="43.3093" y2="26.8157" width="0.5" layer="1"/>
<wire x1="43.9715" y1="26.8157" x2="45.6907" y2="26.8157" width="0.5" layer="1"/>
<wire x1="45.6907" y1="26.8157" x2="46.625" y2="27.75" width="0.5" layer="1"/>
<via x="46.625" y="27.75" extent="1-16" drill="0.6" diameter="1.6764"/>
<wire x1="43.3093" y1="26.8157" x2="43.9715" y2="26.8157" width="0.5" layer="1"/>
<via x="48.875" y="2.875" extent="1-16" drill="0.6" diameter="1.6764"/>
<wire x1="17.4841" y1="2.0823" x2="16.0823" y2="2.0823" width="0.254" layer="1"/>
<wire x1="16.0823" y1="2.0823" x2="15.5" y2="1.5" width="0.254" layer="1"/>
<via x="15.5" y="1.5" extent="1-16" drill="0.6" diameter="1.6764"/>
<contactref element="C7" pad="2"/>
<contactref element="C6" pad="2"/>
<via x="11" y="32.25" extent="1-16" drill="0.6" diameter="1.6764"/>
<wire x1="41.8095" y1="28.908" x2="40.658" y2="28.908" width="0.4" layer="1"/>
<wire x1="40.658" y1="28.908" x2="40.5" y2="28.75" width="0.4" layer="1"/>
<wire x1="40.5" y1="28.75" x2="40.5" y2="27.125" width="0.4" layer="1"/>
<wire x1="40.5" y1="27.125" x2="40.625" y2="27" width="0.4" layer="1"/>
<wire x1="40.625" y1="27" x2="42.367" y2="27" width="0.4" layer="1"/>
<wire x1="42.367" y1="27" x2="42.375" y2="27.008" width="0.4" layer="1"/>
<wire x1="13.1" y1="33" x2="11.75" y2="33" width="0.4" layer="1"/>
<wire x1="11.75" y1="33" x2="11" y2="32.25" width="0.4" layer="1"/>
<wire x1="13.1" y1="31.25" x2="12" y2="31.25" width="0.4" layer="1"/>
<wire x1="12" y1="31.25" x2="11" y2="32.25" width="0.4" layer="1"/>
<wire x1="7.1" y1="28.625" x2="5.75" y2="28.625" width="0.254" layer="1"/>
<wire x1="5.75" y1="28.625" x2="5.25" y2="29.125" width="0.254" layer="1"/>
<via x="5.25" y="29.125" extent="1-16" drill="0.6" diameter="1.6764"/>
<wire x1="11.7074" y1="17.925" x2="16.25" y2="17.925" width="0.4" layer="1"/>
<wire x1="16.25" y1="17.925" x2="16.25" y2="19.5" width="0.4" layer="1"/>
<wire x1="11.625" y1="19.5" x2="16.25" y2="19.5" width="0.4" layer="1"/>
<wire x1="16.25" y1="17.925" x2="16.25" y2="17.125" width="0.4" layer="1"/>
<wire x1="16.25" y1="17.125" x2="20.2926" y2="17.125" width="0.4" layer="1"/>
<via x="42.5" y="2.875" extent="1-16" drill="0.6" diameter="1.6764"/>
<wire x1="54.2669" y1="2.5823" x2="49.1677" y2="2.5823" width="0.254" layer="1"/>
<wire x1="49.1677" y1="2.5823" x2="48.875" y2="2.875" width="0.254" layer="1"/>
<wire x1="39.0983" y1="2.2073" x2="41.8323" y2="2.2073" width="0.254" layer="1"/>
<wire x1="41.8323" y1="2.2073" x2="42.5" y2="2.875" width="0.254" layer="1"/>
<wire x1="20.2926" y1="17.125" x2="21.25" y2="17.125" width="0.4" layer="1"/>
<wire x1="21.25" y1="17.125" x2="22" y2="17.875" width="0.4" layer="1"/>
<wire x1="22" y1="17.875" x2="22.6" y2="17.875" width="0.4" layer="1"/>
<wire x1="5.65" y1="18.625" x2="6.5" y2="18.625" width="0.4" layer="1"/>
<wire x1="6.5" y1="18.625" x2="6.85" y2="18.275" width="0.4" layer="1"/>
<wire x1="6.85" y1="18.275" x2="7.375" y2="18.275" width="0.4" layer="1"/>
<wire x1="4.5" y1="20.8828" x2="5.65" y2="19.7328" width="0.4" layer="1"/>
<wire x1="5.65" y1="19.7328" x2="5.65" y2="18.625" width="0.4" layer="1"/>
<wire x1="7.375" y1="18.275" x2="8.9" y2="18.275" width="0.4" layer="1"/>
<wire x1="8.9" y1="18.275" x2="10.15" y2="19.525" width="0.4" layer="1"/>
<wire x1="10.15" y1="19.525" x2="11.7074" y2="19.525" width="0.4" layer="1"/>
<wire x1="11.625" y1="19.5" x2="11.65" y2="19.525" width="0.4" layer="1"/>
<wire x1="11.65" y1="19.525" x2="11.7074" y2="19.525" width="0.4" layer="1"/>
</signal>
<signal name="D5">
<contactref element="U2" pad="9"/>
</signal>
<signal name="SDA">
<contactref element="U2" pad="27"/>
<contactref element="J6" pad="3"/>
<contactref element="SV1" pad="5"/>
<contactref element="R9" pad="1"/>
<contactref element="U$6" pad="12"/>
<wire x1="17.2" y1="23.4176" x2="17.2" y2="29.29" width="0.254" layer="1"/>
<wire x1="14.4" y1="31.25" x2="15.24" y2="31.25" width="0.254" layer="1"/>
<wire x1="15.24" y1="31.25" x2="17.03" y2="29.46" width="0.254" layer="1"/>
<wire x1="17.2" y1="29.29" x2="17.03" y2="29.46" width="0.254" layer="1"/>
<wire x1="18.365" y1="28.125" x2="17.03" y2="29.46" width="0.254" layer="16"/>
<wire x1="17.87" y1="7.375" x2="17.87" y2="6.88" width="0.254" layer="16"/>
<wire x1="30.75" y1="9.375" x2="36.375" y2="9.375" width="0.254" layer="16"/>
<wire x1="36.375" y1="9.375" x2="37.375" y2="8.375" width="0.254" layer="16"/>
<wire x1="37.375" y1="8.375" x2="37.375" y2="5.375" width="0.254" layer="16"/>
<wire x1="37.375" y1="5.375" x2="38" y2="4.75" width="0.254" layer="16"/>
<wire x1="38" y1="4.75" x2="42.375" y2="4.75" width="0.254" layer="16"/>
<wire x1="42.375" y1="4.75" x2="43.73" y2="6.105" width="0.254" layer="16"/>
<wire x1="43.73" y1="6.105" x2="43.73" y2="7" width="0.254" layer="16"/>
<wire x1="43.73" y1="7" x2="43.73" y2="11.73" width="0.254" layer="1"/>
<wire x1="43.73" y1="11.73" x2="49.875" y2="17.875" width="0.254" layer="1"/>
<via x="49.875" y="28" extent="1-16" drill="0.6" diameter="1.6764"/>
<wire x1="17.87" y1="6.88" x2="19.5" y2="5.25" width="0.254" layer="16"/>
<wire x1="19.5" y1="5.25" x2="26.625" y2="5.25" width="0.254" layer="16"/>
<wire x1="26.625" y1="5.25" x2="30.75" y2="9.375" width="0.254" layer="16"/>
<wire x1="49.875" y1="17.875" x2="49.875" y2="28" width="0.254" layer="1"/>
<wire x1="18.365" y1="28.125" x2="40.25" y2="28.125" width="0.254" layer="16"/>
<wire x1="40.25" y1="28.125" x2="42.375" y2="26" width="0.254" layer="16"/>
<wire x1="42.375" y1="26" x2="47.875" y2="26" width="0.254" layer="16"/>
<wire x1="47.875" y1="26" x2="49.875" y2="28" width="0.254" layer="16"/>
</signal>
<signal name="SCL">
<contactref element="U2" pad="28"/>
<contactref element="J6" pad="2"/>
<contactref element="SV1" pad="6"/>
<contactref element="R10" pad="1"/>
<contactref element="U$6" pad="11"/>
<via x="8.625" y="32.25" extent="1-16" drill="0.6" diameter="1.6764"/>
<wire x1="16.4" y1="23.4176" x2="16.4" y2="27.6" width="0.254" layer="1"/>
<wire x1="14.4" y1="33" x2="16.03" y2="33" width="0.254" layer="1"/>
<wire x1="16.03" y1="33" x2="17.03" y2="32" width="0.254" layer="1"/>
<wire x1="14" y1="30" x2="10.875" y2="30" width="0.254" layer="1"/>
<wire x1="8.625" y1="32.25" x2="10.375" y2="30.5" width="0.254" layer="16"/>
<wire x1="10.375" y1="30.5" x2="15.53" y2="30.5" width="0.254" layer="16"/>
<wire x1="15.53" y1="30.5" x2="17.03" y2="32" width="0.254" layer="16"/>
<wire x1="10.875" y1="30" x2="8.625" y2="32.25" width="0.254" layer="1"/>
<wire x1="16.4" y1="27.6" x2="14" y2="30" width="0.254" layer="1"/>
<wire x1="38" y1="11.125" x2="41.19" y2="7.935" width="0.254" layer="16"/>
<wire x1="41.19" y1="7.935" x2="41.19" y2="7" width="0.254" layer="16"/>
<wire x1="20.41" y1="7.375" x2="20.41" y2="8.16" width="0.254" layer="16"/>
<wire x1="20.41" y1="8.16" x2="23.375" y2="11.125" width="0.254" layer="16"/>
<wire x1="23.375" y1="11.125" x2="38" y2="11.125" width="0.254" layer="16"/>
<wire x1="41.19" y1="7" x2="41.19" y2="14.56" width="0.254" layer="16"/>
<wire x1="41.19" y1="14.56" x2="31.5" y2="24.25" width="0.254" layer="16"/>
<wire x1="17.03" y1="32" x2="18.53" y2="33.5" width="0.254" layer="1"/>
<via x="31.5" y="24.25" extent="1-16" drill="0.6" diameter="1.6764"/>
<wire x1="18.53" y1="33.5" x2="27.625" y2="33.5" width="0.254" layer="1"/>
<wire x1="27.625" y1="33.5" x2="28.5" y2="32.625" width="0.254" layer="1"/>
<wire x1="28.5" y1="32.625" x2="28.5" y2="27.25" width="0.254" layer="1"/>
<wire x1="28.5" y1="27.25" x2="31.5" y2="24.25" width="0.254" layer="1"/>
</signal>
<signal name="3V0">
<contactref element="J6" pad="5"/>
</signal>
<signal name="RST1">
<contactref element="J6" pad="1"/>
<contactref element="U2" pad="10"/>
<contactref element="R3" pad="2"/>
<contactref element="R4" pad="2"/>
<wire x1="17.4841" y1="3.3823" x2="19.2268" y2="5.125" width="0.254" layer="1"/>
<wire x1="17.4841" y1="3.3823" x2="15.4995" y2="3.3677" width="0.254" layer="1"/>
<wire x1="15.4922" y1="3.375" x2="15.4995" y2="3.3677" width="0.254" layer="1"/>
<wire x1="14" y1="14.8324" x2="14" y2="14.125" width="0.254" layer="1"/>
<wire x1="14" y1="14.125" x2="12.75" y2="12.875" width="0.254" layer="1"/>
<wire x1="12.75" y1="12.875" x2="12.75" y2="11" width="0.254" layer="1"/>
<wire x1="12.75" y1="11" x2="13.625" y2="10.125" width="0.254" layer="1"/>
<wire x1="13.625" y1="10.125" x2="21.25" y2="10.125" width="0.254" layer="1"/>
<wire x1="21.25" y1="10.125" x2="22.95" y2="8.425" width="0.254" layer="1"/>
<wire x1="22.95" y1="8.425" x2="22.95" y2="7.375" width="0.254" layer="1"/>
<wire x1="19.2268" y1="5.125" x2="21.125" y2="5.125" width="0.254" layer="1"/>
<wire x1="21.125" y1="5.125" x2="22.95" y2="6.95" width="0.254" layer="1"/>
<wire x1="22.95" y1="6.95" x2="22.95" y2="7.375" width="0.254" layer="1"/>
</signal>
<signal name="FTDI_TX">
<contactref element="J8" pad="3"/>
<contactref element="J12" pad="3"/>
<wire x1="25.73" y1="3.125" x2="25.73" y2="5.605" width="0.254" layer="1"/>
<wire x1="25.73" y1="5.605" x2="28.74" y2="8.615" width="0.254" layer="1"/>
<wire x1="28.74" y1="8.615" x2="28.74" y2="9.8127" width="0.254" layer="1"/>
</signal>
<signal name="FTDI_RX">
<contactref element="J9" pad="3"/>
<contactref element="J12" pad="2"/>
<wire x1="23.19" y1="3.125" x2="23.19" y2="4.44" width="0.254" layer="1"/>
<wire x1="23.19" y1="4.44" x2="26.2" y2="7.45" width="0.254" layer="1"/>
<wire x1="26.2" y1="7.45" x2="26.2" y2="9.8127" width="0.254" layer="1"/>
</signal>
<signal name="BAT">
<contactref element="SV1" pad="4"/>
</signal>
<signal name="32K">
<contactref element="SV1" pad="3"/>
</signal>
<signal name="SQW">
<contactref element="SV1" pad="2"/>
</signal>
<signal name="RST2">
<contactref element="SV1" pad="1"/>
<contactref element="R5" pad="2"/>
<contactref element="R6" pad="2"/>
<wire x1="53.89" y1="7" x2="54.2669" y2="6.6231" width="0.5" layer="1"/>
<wire x1="54.2669" y1="6.6231" x2="54.2669" y2="3.8823" width="0.5" layer="1"/>
<wire x1="52.5073" y1="3.8417" x2="52.5479" y2="3.8823" width="0.5" layer="1"/>
<wire x1="52.5479" y1="3.8823" x2="54.2669" y2="3.8823" width="0.5" layer="1"/>
<contactref element="U2" pad="23"/>
<wire x1="53.89" y1="7" x2="53.89" y2="12.235" width="0.254" layer="16"/>
<wire x1="53.89" y1="12.235" x2="40.375" y2="25.75" width="0.254" layer="16"/>
<via x="29.125" y="24.375" extent="1-16" drill="0.6" diameter="1.6764"/>
<wire x1="26.25" y1="21.125" x2="20.2926" y2="21.125" width="0.254" layer="1"/>
<wire x1="26.25" y1="21.125" x2="29.125" y2="24" width="0.254" layer="1"/>
<wire x1="29.125" y1="24" x2="29.125" y2="24.375" width="0.254" layer="1"/>
<wire x1="40.375" y1="25.75" x2="30.5" y2="25.75" width="0.254" layer="16"/>
<wire x1="30.5" y1="25.75" x2="29.125" y2="24.375" width="0.254" layer="16"/>
</signal>
<signal name="5VIN_FTDI">
<contactref element="J12" pad="4"/>
<contactref element="U$4" pad="2"/>
<wire x1="28.27" y1="3.125" x2="28.27" y2="4.415" width="1" layer="1"/>
<wire x1="28.27" y1="4.415" x2="30.73" y2="6.875" width="1" layer="1"/>
</signal>
<signal name="RX_GPS">
<contactref element="U2" pad="12"/>
<contactref element="U$6" pad="10"/>
<wire x1="19.57" y1="29.46" x2="19.57" y2="28.43" width="0.254" layer="1"/>
<wire x1="19.57" y1="28.43" x2="23.25" y2="24.75" width="0.254" layer="1"/>
<via x="23.25" y="24.75" extent="1-16" drill="0.6" diameter="1.6764"/>
<via x="14.25" y="12.125" extent="1-16" drill="0.6" diameter="1.6764"/>
<wire x1="14.25" y1="22" x2="18.5" y2="26.25" width="0.254" layer="16"/>
<wire x1="18.5" y1="26.25" x2="21.75" y2="26.25" width="0.254" layer="16"/>
<wire x1="21.75" y1="26.25" x2="23.25" y2="24.75" width="0.254" layer="16"/>
<wire x1="14.25" y1="22" x2="14.25" y2="12.125" width="0.254" layer="16"/>
<wire x1="15.6" y1="14.8324" x2="15.6" y2="13.475" width="0.254" layer="1"/>
<wire x1="15.6" y1="13.475" x2="14.25" y2="12.125" width="0.254" layer="1"/>
</signal>
<signal name="TX_GPS">
<contactref element="U2" pad="13"/>
<contactref element="U$6" pad="9"/>
<wire x1="19.57" y1="32" x2="18.25" y2="30.68" width="0.254" layer="1"/>
<wire x1="18.25" y1="30.68" x2="18.25" y2="27.375" width="0.254" layer="1"/>
<wire x1="18.25" y1="27.375" x2="20.875" y2="24.75" width="0.254" layer="1"/>
<via x="20.875" y="24.75" extent="1-16" drill="0.6" diameter="1.6764"/>
<wire x1="20.875" y1="24.75" x2="18.25" y2="24.75" width="0.254" layer="16"/>
<wire x1="18.25" y1="24.75" x2="16.5" y2="23" width="0.254" layer="16"/>
<via x="16.5" y="12.125" extent="1-16" drill="0.6" diameter="1.6764"/>
<wire x1="16.5" y1="23" x2="16.5" y2="12.125" width="0.254" layer="16"/>
<wire x1="16.4" y1="14.8324" x2="16.4" y2="12.225" width="0.254" layer="1"/>
<wire x1="16.4" y1="12.225" x2="16.5" y2="12.125" width="0.254" layer="1"/>
</signal>
<signal name="TIMEPULSE">
<contactref element="U$6" pad="3"/>
</signal>
<signal name="FREQ_PHASE_IN1">
<contactref element="U$6" pad="7"/>
</signal>
<signal name="DAC_SCL">
<contactref element="U$6" pad="5"/>
</signal>
<signal name="FREQ_PHASE_IN0">
<contactref element="U$6" pad="4"/>
</signal>
<signal name="DAC_SDA">
<contactref element="U$6" pad="6"/>
</signal>
<signal name="30_72MHZ">
<contactref element="U$6" pad="8"/>
</signal>
</signals>
</board>
</drawing>
</eagle>
